<?xml version="1.0" encoding="utf-8"?>
<!-- Generator: Adobe Illustrator 22.1.0, SVG Export Plug-In . SVG Version: 6.00 Build 0)  -->
<svg version="1.1" id="Calque_1" xmlns="http://www.w3.org/2000/svg" xmlns:xlink="http://www.w3.org/1999/xlink" x="0px" y="0px"
	 viewBox="0 0 800 800" style="enable-background:new 0 0 800 800;" xml:space="preserve">
<style type="text/css">
	.st0{fill:none;stroke:#003030;stroke-width:1.9142;stroke-linecap:round;stroke-linejoin:bevel;}
	.st1{fill:#7A7777;fill-opacity:0.7256;}
	.st2{fill:none;stroke:#003030;stroke-width:1.5188;stroke-linecap:round;stroke-linejoin:bevel;}
	.st3{fill:none;stroke:#000000;stroke-width:1.5188;}
</style>
<rect id="rect946" x="171.2" y="22.6" class="st0" width="541.8" height="755.4"/>
<rect id="rect948" x="194.7" y="52.6" class="st1" width="307.6" height="27.7"/>
<rect id="rect950" x="194.7" y="115" class="st1" width="493.3" height="15.1"/>
<rect id="rect952" x="194.7" y="138.2" class="st1" width="493.3" height="15.1"/>
<rect id="rect954" x="194.7" y="163.2" class="st1" width="493.3" height="15.1"/>
<rect id="rect956" x="194.7" y="188.2" class="st1" width="493.3" height="15.1"/>
<rect id="rect982" x="194.7" y="213.1" class="st1" width="493.3" height="15.1"/>
<rect id="rect1012" x="207.2" y="266.7" class="st2" width="129.8" height="204.9"/>
<rect id="rect1014" x="554.6" y="266.7" class="st2" width="129.8" height="204.9"/>
<rect id="rect1016" x="384.9" y="266.7" class="st2" width="129.8" height="204.9"/>
<rect id="rect1018" x="207.2" y="503.4" class="st2" width="129.8" height="204.9"/>
<rect id="rect1020" x="554.6" y="503.4" class="st2" width="129.8" height="204.9"/>
<rect id="rect1022" x="384.9" y="503.4" class="st2" width="129.8" height="204.9"/>
<path id="path1036" inkscape:connector-curvature="0" class="st3" d="M337,471.7L207.2,266.7"/>
<path id="path1038" inkscape:connector-curvature="0" class="st3" d="M207.2,471.7L337,266.7"/>
<path id="path1040" inkscape:connector-curvature="0" class="st3" d="M384.9,266.7l129.8,204.9"/>
<path id="path1042" inkscape:connector-curvature="0" class="st3" d="M514.6,266.7L384.9,471.7"/>
<path id="path1044" inkscape:connector-curvature="0" class="st3" d="M554.6,266.7l129.8,204.9"/>
<path id="path1046" inkscape:connector-curvature="0" class="st3" d="M684.3,266.7L554.6,471.7"/>
<path id="path1052" inkscape:connector-curvature="0" class="st3" d="M207.2,503.4L337,708.3"/>
<path id="path1054" inkscape:connector-curvature="0" class="st3" d="M337,503.4L207.2,708.3"/>
<path id="path1056" inkscape:connector-curvature="0" class="st3" d="M384.9,503.4l129.8,204.9"/>
<path id="path1058" inkscape:connector-curvature="0" class="st3" d="M514.6,503.4L384.9,708.3"/>
<path id="path1060" inkscape:connector-curvature="0" class="st3" d="M554.6,503.4l129.8,204.9"/>
<path id="path1062" inkscape:connector-curvature="0" class="st3" d="M684.3,503.4L554.6,708.3"/>
<rect id="rect982_1_" x="199.4" y="743.2" class="st1" width="493.3" height="7.4"/>
</svg>
