<?xml version="1.0" encoding="utf-8"?>
<!-- Generator: Adobe Illustrator 21.1.0, SVG Export Plug-In . SVG Version: 6.00 Build 0)  -->
<svg version="1.1"
	 id="svg1099" inkscape:version="0.92.2 5c3e80d, 2017-08-06" sodipodi:docname="ZUI_PDF_BUREAU_POD.svg" xmlns:cc="http://creativecommons.org/ns#" xmlns:dc="http://purl.org/dc/elements/1.1/" xmlns:inkscape="http://www.inkscape.org/namespaces/inkscape" xmlns:osb="http://www.openswatchbook.org/uri/2009/osb" xmlns:rdf="http://www.w3.org/1999/02/22-rdf-syntax-ns#" xmlns:sodipodi="http://sodipodi.sourceforge.net/DTD/sodipodi-0.dtd" xmlns:svg="http://www.w3.org/2000/svg"
	 xmlns="http://www.w3.org/2000/svg" xmlns:xlink="http://www.w3.org/1999/xlink" x="0px" y="0px" viewBox="0 0 600 800"
	 style="enable-background:new 0 0 600 800;" xml:space="preserve">
<style type="text/css">
	.st0{display:none;}
	.st1{display:inline;}
	
		.st2{opacity:0.93;fill:#A29F9F;fill-opacity:0.7256;stroke:#020E00;stroke-width:7.599273e-02;stroke-linecap:round;enable-background:new    ;}
	.st3{fill:none;stroke:#020E00;stroke-width:0.2401;stroke-linecap:round;stroke-dasharray:0.2401,0.7204;}
	.st4{fill:#A29F9F;fill-opacity:0.7256;}
	.st5{fill:#FFFFFF;}
	.st6{fill:#FFFFFF;stroke:#070707;stroke-width:0.2425;stroke-linecap:round;}
	.st7{fill:#FFFFFF;stroke:#000000;stroke-width:0.2425;}
	.st8{opacity:0.93;fill:#A29F9F;fill-opacity:0.7256;enable-background:new    ;}
	.st9{fill:none;stroke:#003030;stroke-width:0.6348;stroke-linecap:round;stroke-linejoin:bevel;}
	.st10{fill:none;stroke:#707979;stroke-width:0.1323;stroke-linecap:round;stroke-linejoin:bevel;}
	.st11{fill:none;stroke:#000000;stroke-width:0.2301;}
	.st12{fill:none;stroke:#000000;stroke-width:0.2609;stroke-dasharray:0.2609,0.2609;}
	.st13{fill:none;stroke:#003030;stroke-width:0.6476;stroke-linecap:round;stroke-linejoin:bevel;}
	.st14{fill:none;stroke:#707979;stroke-width:0.1323;}
	.st15{fill:none;stroke:#003030;stroke-width:0.5;stroke-linecap:round;stroke-linejoin:bevel;}
	.st16{fill:none;stroke:url(#rect947_1_);stroke-width:0.2117;stroke-linecap:round;stroke-linejoin:bevel;stroke-opacity:0.8884;}
	.st17{fill:none;}
	.st18{fill:none;stroke:url(#rect999_1_);stroke-width:0.25;stroke-linecap:round;stroke-linejoin:bevel;stroke-opacity:0.8884;}
	.st19{fill:none;stroke:url(#rect1007_1_);stroke-width:0.2117;stroke-linecap:round;stroke-linejoin:bevel;stroke-opacity:0.8884;}
	.st20{fill:none;stroke:#707979;stroke-width:0.1303;}
	.st21{opacity:0.47;fill:#A29F9F;enable-background:new    ;}
	.st22{fill:none;stroke:#000202;stroke-width:0.9453;stroke-linecap:round;stroke-linejoin:bevel;}
	.st23{fill:none;stroke:url(#rect3088_1_);stroke-width:0.4201;stroke-linecap:round;stroke-linejoin:bevel;stroke-opacity:0.8884;}
	.st24{fill:none;stroke:#000000;stroke-width:0.4201;}
	.st25{fill:#A29F9F;}
	.st26{fill:none;stroke:url(#rect3118_1_);stroke-width:0.2626;stroke-linecap:round;stroke-linejoin:bevel;stroke-opacity:0.8884;}
	.st27{fill:none;stroke:#000000;stroke-width:0.2626;}
	
		.st28{fill:#FFFFFF;fill-opacity:0.8911;stroke:url(#rect1586_1_);stroke-width:0.3151;stroke-linecap:round;stroke-linejoin:bevel;stroke-opacity:0.8884;}
	.st29{fill:none;stroke:#000000;stroke-width:0.3151;}
	
		.st30{fill:#FFFFFF;fill-opacity:0.8911;stroke:url(#rect3130_1_);stroke-width:0.3676;stroke-linecap:round;stroke-linejoin:bevel;stroke-opacity:0.8884;}
	.st31{fill:none;stroke:#000000;stroke-width:0.3676;}
	.st32{fill:#8B8B8B;}
	.st33{fill:none;stroke:#000202;stroke-width:0.4762;stroke-linecap:round;stroke-linejoin:bevel;}
	.st34{fill:none;stroke:url(#rect3141_1_);stroke-width:0.2117;stroke-linecap:round;stroke-linejoin:bevel;stroke-opacity:0.8884;}
	.st35{fill:none;stroke:#000000;stroke-width:0.2117;}
	.st36{fill:none;stroke:url(#rect3159_1_);stroke-width:0.2117;stroke-linecap:round;stroke-linejoin:bevel;stroke-opacity:0.8884;}
	
		.st37{fill:#FFFFFF;fill-opacity:0.8911;stroke:url(#rect3165_1_);stroke-width:0.2117;stroke-linecap:round;stroke-linejoin:bevel;stroke-opacity:0.8884;}
	
		.st38{fill:#FFFFFF;fill-opacity:0.8911;stroke:url(#rect3171_1_);stroke-width:0.2117;stroke-linecap:round;stroke-linejoin:bevel;stroke-opacity:0.8884;}
	.st39{fill:none;stroke:#003030;stroke-width:1.1648;stroke-linecap:round;stroke-linejoin:bevel;}
	.st40{fill:none;stroke:url(#rect3118-8_1_);stroke-width:0.34;stroke-linecap:round;stroke-linejoin:bevel;stroke-opacity:0.8884;}
	.st41{fill:none;stroke:#000000;stroke-width:0.34;}
	
		.st42{fill:#FFFFFF;fill-opacity:0.8911;stroke:url(#rect1586-7_1_);stroke-width:0.495;stroke-linecap:round;stroke-linejoin:bevel;stroke-opacity:0.8884;}
	.st43{fill:none;stroke:#000000;stroke-width:0.6471;}
	
		.st44{fill:#FFFFFF;fill-opacity:0.8911;stroke:url(#rect3130-3_1_);stroke-width:0.461;stroke-linecap:round;stroke-linejoin:bevel;stroke-opacity:0.8884;}
	
		.st45{fill:none;stroke:url(#rect3088-5_1_);stroke-width:0.4518;stroke-linecap:round;stroke-linejoin:bevel;stroke-opacity:0.8884;}
	.st46{fill:none;stroke:url(#rect3118-0_1_);stroke-width:0.34;stroke-linecap:round;stroke-linejoin:bevel;stroke-opacity:0.8884;}
	.st47{fill:none;stroke:#003030;stroke-width:0.4762;stroke-linecap:round;stroke-linejoin:bevel;}
	.st48{fill:none;stroke:#000000;stroke-width:0.2583;stroke-linecap:round;stroke-linejoin:bevel;}
	.st49{fill:none;stroke:#000000;stroke-width:0.2016;}
	.st50{fill:none;stroke:#000000;stroke-width:0.4762;stroke-linecap:round;stroke-linejoin:bevel;}
	.st51{fill:none;stroke:url(#rect3527_1_);stroke-width:0.4096;stroke-linecap:round;stroke-linejoin:bevel;stroke-opacity:0.8884;}
	.st52{fill:none;stroke:#000000;stroke-width:0.3641;}
	.st53{fill:none;stroke:url(#rect3545_1_);stroke-width:0.261;stroke-linecap:round;stroke-linejoin:bevel;stroke-opacity:0.8884;}
	.st54{fill:none;stroke:#000000;stroke-width:0.261;}
	.st55{font-family:'Helvetica';}
	.st56{font-size:28.2635px;}
	.st57{fill:none;stroke:#000000;stroke-width:0.228;stroke-linecap:round;}
	
		.st58{fill:#FFFFFF;fill-opacity:0.8911;stroke:url(#rect3551_1_);stroke-width:0.3641;stroke-linecap:round;stroke-linejoin:bevel;stroke-opacity:0.8884;}
	
		.st59{fill:#FFFFFF;fill-opacity:0.8911;stroke:url(#rect3557_1_);stroke-width:0.316;stroke-linecap:round;stroke-linejoin:bevel;stroke-opacity:0.8884;}
	.st60{fill:none;stroke:#000000;stroke-width:0.2646;}
	.st61{fill:none;stroke:#737373;stroke-width:13.396;stroke-linecap:round;stroke-miterlimit:10;}
	.st62{fill:none;stroke:#737373;stroke-width:7;stroke-linecap:round;stroke-miterlimit:10;}
	.st63{fill:#1CC2E8;}
	.st64{fill:none;stroke:#1CC2E8;stroke-width:2;stroke-linecap:round;stroke-miterlimit:10;}
	.st65{fill:#FFFFFF;stroke:#737373;stroke-miterlimit:10;}
	.st66{stroke:#737373;stroke-miterlimit:10;}
	.st67{fill:#999999;stroke:url(#rect3088-5_3_);stroke-linecap:round;stroke-linejoin:bevel;stroke-opacity:0.8884;}
	.st68{fill:none;stroke:#000000;stroke-width:1.212;}
	
		.st69{fill:#999999;stroke:url(#rect3118-0_3_);stroke-width:0.6368;stroke-linecap:round;stroke-linejoin:bevel;stroke-opacity:0.8884;}
	.st70{fill:none;stroke:#000000;stroke-width:0.6368;}
	.st71{fill:#FFFFFF;stroke:#E90006;}
	.st72{stroke:#E90006;}
</style>
<sodipodi:namedview  bordercolor="#666666" borderopacity="1.0" id="base" inkscape:current-layer="layer5" inkscape:cx="220" inkscape:cy="371.37572" inkscape:document-units="mm" inkscape:guide-bbox="true" inkscape:pageopacity="0.0" inkscape:pageshadow="2" inkscape:window-height="852" inkscape:window-maximized="0" inkscape:window-width="1440" inkscape:window-x="6" inkscape:window-y="0" inkscape:zoom="0.7" pagecolor="#ffffff" showgrid="false" showguides="true" units="px">
	<sodipodi:guide  id="guide1790" inkscape:locked="false" orientation="1,0" position="48.380951,149.67857"></sodipodi:guide>
	<sodipodi:guide  id="guide1792" inkscape:locked="false" orientation="0,1" position="111.88095,188.9881"></sodipodi:guide>
	<sodipodi:guide  id="guide1794" inkscape:locked="false" orientation="1,0" position="167.82142,-4.5357144"></sodipodi:guide>
	<sodipodi:guide  id="guide1796" inkscape:locked="false" orientation="0,1" position="144.3869,21.166667"></sodipodi:guide>
</sodipodi:namedview>
<g id="layer6" inkscape:groupmode="layer" inkscape:label="Layer 4" class="st0">
	<g id="g2010" transform="matrix(3.5867547,0,0,3.5867547,-277.72969,-245.25576)" class="st1">
		<rect id="rect5759" x="140.9" y="138.3" class="st2" width="96.1" height="96.1"/>
		<rect id="rect5725" x="141.2" y="100.7" class="st3" width="95.8" height="158.5"/>
		<rect id="rect5727" x="143.8" y="104.5" class="st4" width="34.9" height="4.7"/>
		<rect id="rect5729" x="143.5" y="113.5" class="st4" width="79.7" height="2.7"/>
		<rect id="rect5731" x="143.5" y="117.7" class="st4" width="89.7" height="2.7"/>
		<rect id="rect5733" x="143.5" y="122.2" class="st4" width="79.7" height="2.7"/>
		<rect id="rect5735" x="143.5" y="126.7" class="st4" width="65.1" height="2.7"/>
		<g id="g5747" transform="matrix(1.0711657,0,0,0.72684944,78.293861,-2.0430909)">
			<rect id="rect5739" x="72.3" y="262.9" class="st5" width="56.9" height="2.8"/>
			<rect id="rect5741" x="58.4" y="193.1" class="st6" width="89.7" height="132.2"/>
			<path id="path5743" inkscape:connector-curvature="0" class="st7" d="M58.4,193.1l89.7,132.2"/>
			<path id="path5745" inkscape:connector-curvature="0" class="st7" d="M148.1,193.1L58.4,325.3"/>
		</g>
		<rect id="rect5749" x="143.5" y="245.7" class="st8" width="21.8" height="2.7"/>
		<rect id="rect5751" x="176.8" y="245.7" class="st8" width="21.8" height="2.7"/>
		<rect id="rect5753" x="210.2" y="245.7" class="st8" width="21.8" height="2.7"/>
	</g>
</g>
<g id="layer7" inkscape:groupmode="layer" inkscape:label="Layer 5" class="st0">
	<g id="g2145" transform="matrix(2.1122457,0,0,2.1122457,-90.237607,-91.480412)" class="st1">
		<rect id="rect1996" x="64.3" y="80.3" class="st9" width="90.6" height="141.6"/>
		<rect id="rect1998" x="64.3" y="237.2" class="st10" width="90.6" height="141.6"/>
		<rect id="rect2000" x="306.8" y="81.5" class="st9" width="90.6" height="141.6"/>
		<g id="g2014" transform="matrix(1.2330512,0,0,2.8395745,-56.614166,22.347531)">
			<path id="path2002" inkscape:connector-curvature="0" class="st11" d="M167.5,19L167,128.5"/>
			<path id="path2004" inkscape:connector-curvature="0" sodipodi:nodetypes="cc" class="st12" d="M167,11.5l0.5,7.6"/>
			<path id="path2006" inkscape:connector-curvature="0" sodipodi:nodetypes="cc" class="st12" d="M167,129.1l0.5,7.6"/>
			<path id="path2008" inkscape:connector-curvature="0" class="st11" d="M103.5,19L103,128.5"/>
			<path id="path2010" inkscape:connector-curvature="0" sodipodi:nodetypes="cc" class="st12" d="M103,11.5l0.5,7.6"/>
			<path id="path2012" inkscape:connector-curvature="0" sodipodi:nodetypes="cc" class="st12" d="M103,129.1l0.5,7.6"/>
		</g>
		<rect id="rect2346" x="188.3" y="80.3" class="st9" width="90.6" height="141.6"/>
		<rect id="rect2348" x="188.3" y="242.4" class="st9" width="90.6" height="141.6"/>
		<g id="g1028" transform="matrix(1.2330512,0,0,2.8395745,7.4036635,22.347531)">
			<path id="path1016" inkscape:connector-curvature="0" sodipodi:nodetypes="cc" class="st11" d="M311.8,19l-0.5,51.7"/>
			<path id="path1018" inkscape:connector-curvature="0" sodipodi:nodetypes="cc" class="st12" d="M311.3,11.5l0.5,7.6"/>
			<path id="path1020" inkscape:connector-curvature="0" sodipodi:nodetypes="cc" class="st12" d="M311.3,70.5l0.5,7.6"/>
			<path id="path1022" inkscape:connector-curvature="0" sodipodi:nodetypes="cc" class="st11" d="M247.8,19l-0.5,51.7"/>
			<path id="path1024" inkscape:connector-curvature="0" sodipodi:nodetypes="cc" class="st12" d="M247.3,11.5l0.5,7.6"/>
			<path id="path1026" inkscape:connector-curvature="0" sodipodi:nodetypes="cc" class="st12" d="M247.3,70.5l0.5,7.6"/>
		</g>
		<g id="g1042" transform="matrix(1.2330512,0,0,2.8395745,-23.953683,22.347531)">
			<path id="path1030" inkscape:connector-curvature="0" class="st11" d="M241.1,19l-0.5,109.5"/>
			<path id="path1032" inkscape:connector-curvature="0" sodipodi:nodetypes="cc" class="st12" d="M240.6,11.5l0.5,7.6"/>
			<path id="path1034" inkscape:connector-curvature="0" sodipodi:nodetypes="cc" class="st12" d="M240.6,129.1l0.5,7.6"/>
			<path id="path1036" inkscape:connector-curvature="0" class="st11" d="M177.1,19l-0.5,109.5"/>
			<path id="path1038" inkscape:connector-curvature="0" sodipodi:nodetypes="cc" class="st12" d="M176.6,11.5l0.5,7.6"/>
			<path id="path1040" inkscape:connector-curvature="0" sodipodi:nodetypes="cc" class="st12" d="M176.6,129.1l0.5,7.6"/>
		</g>
		<rect id="rect1322" x="304.7" y="243.9" class="st13" width="95.2" height="140.3"/>
		<rect id="rect1324" x="312" y="253.6" class="st4" width="66.1" height="8.9"/>
		<rect id="rect1326" x="312" y="273.6" class="st4" width="78.1" height="4.8"/>
		<rect id="rect1328" x="312" y="281" class="st4" width="78.1" height="4.8"/>
		<rect id="rect1330" x="312" y="289" class="st4" width="78.1" height="4.8"/>
		<rect id="rect1332" x="312" y="297" class="st4" width="78.1" height="4.8"/>
		
			<path id="path1334" inkscape:connector-curvature="0" sodipodi:nodetypes="csccccccscsccccssssscssscscscccccccccccccccccssccccscsccsccc" class="st14" d="
			M68.3,92.3c4.7-3.1,8.8-7.3,14-9.3c3.6-1.4,11.9,3.6,16.2,4h5.1c0,0.3-0.3,0.9,0,1c1.4,0.5,5.3-1.2,2,2c-0.2,0.2,0.1-4.8,2-1
			c0.3,0.7-0.9,1.3-1,2c-0.2,1,0,2,0,3v7.1v3c0,1.3,0.3,2.7,0,4c-1.1,4.3-2.9,3.7-4,7.1c-0.4,1.3-0.2,2.9-1,4c-0.4,0.5-1.5-0.4-2,0
			c-4.8,1.1,0.7,2.3,0,3c-0.5,0.5-1.3,0-2,0c-0.3,0,1.2-0.3,1,0c-0.4,0.9-1.3,1.3-2,2c-0.3,0.3,1-1.5,1-1c0,0.8-0.5,1.5-1,2
			c-0.2,0.2,0.2-0.8,0-1s-1-0.3-1,0c0,1.1,1,2,1,3c0,0.3-0.9-0.3-1,0c-0.3,1.3,0,2.7,0,4c0,1-0.2,2,0,3c0.5,2.1,1.3,4,2,6.1
			c0.7,2,1.3,4.1,2,6.1c2,5.2,2.8,6.7,5.1,11.1c1.3,2.5,3.6,8,6.1,10.1c0.8,0.7,2.3,0.3,3,1c1.1,1.1,1.2,2.7,2,4c0.6,1,3.8,2.9,4,3
			c0.3,0.2,0.7-0.2,1,0c0.4,0.2,0.6,0.7,1,1c0.6,0.4,1.4,0.6,2,1c0.4,0.3,0.6,0.7,1,1c5,3.7,1.1,0.7,5.1,3c1,0.6,1.9,1.6,3,2
			c1.6,0.6,3.4,0.7,5.1,1c0.3,0.1,0.7-0.2,1,0c0.8,0.5,1.1,1.8,2,2c0.7,0.2,1.3-1.3,2-1c0.6,0.3-0.6,1.7,0,2c0.7,0.3,1.5-0.5,2-1
			c0.2-0.2-1.3,0-1,0c0.7,0,1.7-0.6,2,0c0.3,0.7-0.5,1.5-1,2c-0.2,0.2-0.2-1.2,0-1c0.5,0.5,0.8,1.3,1,2c0.1,0.3,0,0.7,0,1
			c0,0.7,0.2,1.4,0,2c-0.2,0.7-0.7,1.3-1,2c-0.7,1.3-1.2,2.7-2,4c-0.2,0.4-0.9,0.6-1,1c-0.2,0.6,0,1.3,0,2c0,0.3-0.2,0.7,0,1
			c0.4,0.9,1.4,1.3,2,2c3.3,4.1,2.4,3.8,6.1,7.1"/>
		<path id="path1345" inkscape:connector-curvature="0" class="st14" d="M71.7,232.9c-3.5,8.4,8.1,3.2,10,6.7c0.3,0.6-0.4,1.3-0.2,2
			c0.1,0.5,0.8,0.6,0.9,1.1c0.1,0.6-0.4,1.3-0.2,2c0.1,0.5,0.8,0.6,0.9,1.1c0.3,1.5-0.9,3.4-0.5,4.9c0.1,0.5,0.8,0.6,0.9,1.1
			c0.1,0.6-0.1,1.3-0.2,2c0.2,1,0.4,2,0.7,3c0.2,0.7,0.9,1.3,0.8,2.1c-0.1,0.7-1.3,1.1-1.2,1.9c0.1,1.2,1.3,2,1.7,3.1
			c0.1,0.3-0.1,0.7-0.1,1c0.1,1.3,0.5,2.7,0.6,4c0,1-0.4,2-0.3,2.9c0.1,0.7,0.9,1.3,0.8,2.1c-0.1,0.7-1.1,1.1-1.2,1.9
			c0,0.5,0.7,0.7,0.9,1.1c0.4,0.6,0.9,1.3,0.8,2.1c0,0.5-1.1,0.4-1.1,0.9c-0.1,0.7,0.6,1.3,0.8,2.1c0.3,1,0.5,2,0.7,3s0.5,2,0.7,3
			c0.2,1.7,0.1,3.4,0.5,5c0.3,1.4,1.1,2.7,1.6,4.1c0.6,1.7,0.9,3.4,1.5,5.1c0.4,1.1,1.2,2.1,1.7,3.1c0.3,0.7,0.5,1.4,0.8,2.1
			c0.2,0.5,2.6,4.4,2.5,5.2c0,0.5-1.1-1.5-0.9-1.1c0.4,1.1,1.1,2.1,1.7,3.1c0.2,0.4,0.5,0.8,0.9,1.1c0.3,0.2,1-0.2,1,0.1
			c0,0.5-1.4,0.5-1.1,0.9c0.4,0.5,1.4-0.2,2,0.2c0.3,0.2,0.2,1-0.1,1c-0.3,0-0.2-1,0.1-1c0.7,0.1,1.3,0.7,1.9,1.2
			c3,3.6-0.9-0.6,1.9,1.2c0.4,0.2,0.4,1,0.9,1.1c0.5,0,0.7-1.1,1.1-0.9c0.6,0.4,0.2,1.6,0.8,2.1c0.5,0.4,1.6-0.3,2,0.2
			c0.3,0.4-1.5,0.6-1.1,0.9c0.9,0.5,2.1,0,3,0.3c0.4,0.2,1.3,0.8,0.9,1.1c-0.4,0.3-1.4-1.1-0.9-1.1c0.7,0.1,1.2,1,1.9,1.2
			c1,0.3,4.7,0.5,6,0.6s2.7,0.3,4,0.4c0.3,0,1-0.2,1,0.1c0,0.3-1.3,0.1-1-0.1c0.6-0.5,1.4-0.7,2.1-0.8c0.7-0.1,1.3,0.3,2,0.2
			c1.1-0.1,2.1-0.6,3.1-0.7c1,0.1,2,0.2,3,0.3c0-0.3-0.2-0.9,0.1-1c0.6-0.2,1.4,0.5,2,0.2c0.7-0.3,1.1-1.1,1.2-1.9
			c0-0.5-1.2,1.3-1.1,0.9c0.1-0.7,0.5-1.6,1.2-1.9c0.4-0.2,1,0.6,0.9,1.1c0,0.3-1.2,0.2-1-0.1c5.5-4.4,1,0,2.3-2.7
			c0.3-0.7,0.5-1.6,1.2-1.9c0.4-0.2,1.3,0.8,0.9,1.1c-0.4,0.3-1-0.6-0.9-1.1c0-0.5,0.7-0.7,1.1-0.9c0.3-0.1,1,0.4,1,0.1
			c0.1-1-0.5-2-0.7-3c-0.1-0.6,0.1-1.3,0.2-2c0.2-2,0.4-3.9,0.6-5.9c0-0.3-0.1,1.3-0.1,1c0.1-1,0.8-2.1,0.3-2.9
			c-0.3-0.6-1.6,0.3-2-0.2c-0.3-0.4,1.2-0.4,1.1-0.9c-0.2-0.9-1.5-1.3-1.8-2.2c-0.1-0.3,0.7,0.1,1,0.1c0.1-0.7,0.5-1.4,0.2-2
			c-0.4-0.6-1.4-0.6-1.9-1.2c-0.2-0.3,1.3,0.1,1,0.1c-0.7-0.1-1.8,0.4-2-0.2c-0.3-0.7,1.4-1.1,1.2-1.9c-0.2-0.7-1.5-0.5-1.9-1.2
			c-0.5-0.9-0.3-2.1-0.7-3c-0.2-0.4-0.7-0.6-0.9-1.1c-0.2-0.6,0.6-1.4,0.2-2c-0.5-0.6-1.4-0.6-1.9-1.2c-0.2-0.3,1-0.2,1,0.1
			c0,0.3-0.9,0.2-1-0.1c-0.2-0.6,0.6-1.4,0.2-2c-0.3-0.4-1.1,0.4-1.1,0.9c0,0.3,0.8,0.4,1,0.1c0.4-0.6,0.1-1.3,0.2-2
			c0-0.3,0.2,0.8-0.1,1s-1,0.2-1-0.1c0-0.3,1.3,0.1,1,0.1c-6.6-0.7,3.6,0.4-3-0.3c-0.3,0,1.1,0.4,1,0.1c-0.3-0.9-1.2-1.4-1.8-2.2
			c-0.3-0.4,0.9,1.5,0.9,1.1c0.1-0.7-0.2-1.7-0.8-2.1c-0.4-0.2-1.1,0.4-1.1,0.9c0,0.3,0.7,0.3,1,0.1c0.8-0.7-0.6-2-1.8-2.2
			c-0.5,0,0.6,0.7,0.9,1.1c0.1-0.7,0.8-1.6,0.2-2s-1.4,0.9-2.1,0.8c-0.5,0,1.2-0.4,1.1-0.9c-0.2-0.9-1.2-1.4-1.8-2.2
			c-0.3-0.4,1.4,1.1,0.9,1.1c-0.7-0.1-1.6-0.5-1.9-1.2c-0.2-0.4,0.6-0.9,1.1-0.9c0.3,0-0.8,4.2-2.1,0.8c-1.3-3.5,2.5-2,1.1-0.9
			c-0.7,0.5-1.9-0.8-1.9-1.2c0-0.5,0.8-1.2,1.1-0.9c0.3,0.4-0.6,0.9-1.1,0.9s-1-0.6-0.9-1.1c0-0.3,1-0.2,1,0.1
			c-0.1,1.3-0.7,2.7-1.4,3.8c-0.2,0.3-1-0.4-1-0.1c-0.1,1,0.6,2,0.7,3s-0.5,5.1-0.6,5.9c-0.8,7.8-0.3-3.3,1.8,2.2
			c0.3,0.7-1.1,1.1-1.2,1.9c-0.1,0.9,2.5,1.6,1.8,2.2c-0.4,0.3-1.4-1.1-0.9-1.1c2,0.2,2.8,2.3,0.8,2.1c-0.3,0-0.2-1,0.1-1
			c0.5,0,0.6,0.7,0.9,1.1s0.6,0.7,0.9,1.1s0.7,0.6,0.9,1.1c0.1,0.3-0.4,0.9-0.1,1c0.5,0,1.1-0.4,1.1-0.9c0-0.3-1-0.4-1-0.1
			c-0.1,0.7,0.3,1.5,0.8,2.1c0.2,0.3,1-0.2,1,0.1c-0.1,0.7-1.5,1.2-1.2,1.9c0.2,0.6,1.6-0.3,2,0.2c0.3,0.4-1.3,0.4-1.1,0.9
			c0.3,0.7,1.8,0.5,1.9,1.2c0.2,1-1.5,1.8-1.3,2.8c0.1,0.6,1.9-0.4,2,0.2c0.2,1-1.5,1.8-1.3,2.8c0.1,0.6,1.9-0.4,2,0.2
			c0.2,1-1.5,1.8-1.3,2.8c0.1,0.6,1.9-0.4,2,0.2c0.2,1-1.2,1.8-1.3,2.8c0,0.5,0.6-0.9,1.1-0.9c0.3,0-0.2,0.7-0.1,1
			c0.2,0.7,0.9,1.3,0.8,2.1c0,0.5-0.7,0.6-1.1,0.9c-0.1,0.7-0.3,1.3-0.2,2s0.4,1.4,0.8,2.1c0.2,0.4,1,0.6,0.9,1.1
			c0,0.3-0.7-0.3-1-0.1c-0.5,0.4,0.5,2-0.2,2c-0.3,0-0.2-1,0.1-1s-0.3,0.7-0.1,1s0.8-0.2,1,0.1c0.2,0.3,0.2,1-0.1,1
			c-0.5,0-0.4-1-0.9-1.1c-0.3,0-0.1,0.7-0.1,1c-0.2,2.3-0.2-0.5,0.8,2.1c0.1,0.3-0.1,0.7-0.1,1s-0.1,0.7-0.1,1
			c-0.1,1.3,0.1,2.7-0.4,3.9c-0.1,0.3-0.7-0.3-1-0.1c-0.7,0.5,0.7,3-1.3,2.8c-0.3,0-0.2-1,0.1-1s0.2,0.8-0.1,1s-0.7,0-1-0.1
			c-1-0.4-2.3-1.2-2.8-2.3c-0.4-0.6-0.9-1.3-0.8-2.1c0-0.5,0.8-1.2,1.1-0.9c0.3,0.4-0.9,1.3-1.1,0.9c-0.6-1.2-0.7-2.7-0.6-4
			c0-0.3,1,0.4,1,0.1c0.1-1-0.5-2-0.7-3c0-0.3,0.1-0.7,0.1-1s-0.2-1,0.1-1c0.3,0-0.1,1.3-0.1,1c0.1-0.7,0.1-1.3,0.2-2
			c0-0.3-0.3,0.7-0.1,1c0.2,0.3,0.7,0.1,1,0.1c0.7,0.1,1.3,0.1,2,0.2c0.3,0-1,0.2-1-0.1c0-0.3,0.9-0.2,1,0.1c0.2,0.6-0.6,1.4-0.2,2
			c0.4,0.5,1.4-0.1,2,0.2c0.8,0.4,1.6,2.7,1.7,3.1c0.2,0.8-0.6,1.9-0.2,2c0.7,0.1,1.6-1.3,2.1-0.8c0.5,0.6-1.4,1.1-1.2,1.9
			c0.2,0.7,1.6,0.5,1.9,1.2c0.2,0.4-1.2,0.4-1.1,0.9c0.2,1.2,1.4,2,1.7,3.1c0.1,0.3-1.1-0.4-1-0.1c0.3,1.2,1.4,2,1.7,3.1
			c0,0.1-5.1-1.1-0.2,2c0.4,0.2,1.2-1.3,1.1-0.9c-0.1,0.7-0.6,1.4-1.2,1.9c-0.3,0.2,0.1-1.3,0.1-1c-0.1,0.7-0.1,1.3-0.2,2
			c0,0.3-0.1-1.2,0.1-1c0.5,0.6,0.2,1.7,0.8,2.1c0.4,0.2,1.2-1.3,1.1-0.9c-3.4,7.4-0.4-1.3,0.5,5c0.4,2.6-3.7,1.6,0.8,2.1
			c0.7,0.1-5.7-0.9-1.2,1.9c0.6,0.4,1.5-1.2,2.1-0.8c0.6,0.4-0.4,1.3-0.2,2c0.1,0.3,0.8-0.2,1,0.1c0.2,0.3-0.4,0.8-0.1,1
			c0.6,0.4,1.8-0.4,2,0.2c0.3,0.7-1.5,1.2-1.2,1.9c0.2,0.6,1.3,0.1,2,0.2c0.3,0-1-0.4-1-0.1c-0.1,0.7,0.3,1.5,0.8,2.1
			c0.2,0.3,0.1-1.3,0.1-1c-0.1,0.7-0.8,1.6-0.2,2s1.5-0.3,2.1-0.8c0.3-0.2-0.8-0.4-1-0.1c-0.4,0.6-0.1,1.3-0.2,2
			c0,0.3,0.1-1.3,0.1-1c-0.1,0.7-0.1,1.3-0.2,2c0,0.3-0.1-1.2,0.1-1c0.5,0.6,0.2,1.7,0.8,2.1c0.4,0.2,1.2-1.3,1.1-0.9
			c-0.1,0.7-1.7,1.3-1.2,1.9s1.6-1.3,2.1-0.8c0.5,0.6-0.6,1.4-1.2,1.9c-0.3,0.2-0.2-0.8,0.1-1s0.8-0.2,1,0.1
			c0.5,0.6,0.9,1.3,0.8,2.1c0,0.5-0.5-1.4-0.9-1.1c-0.5,0.4-0.3,1.3-0.2,2c0.5,4.2,1.3,8.3,2,12.4"/>
		<path id="path1347" inkscape:connector-curvature="0" class="st14" d="M194.5,76.4c1.7,6.3,1.7,4,1.7,6.8c0,0.2-0.2,0.5,0,0.7
			c0.4,0.4,1.1,0.3,1.4,0.7c0.4,0.4,0.4,1,0.7,1.4c1.3,2,0.5-1.4,2.1,2.9c0.2,0.4,0,1,0,1.4c0,1.2-0.2,2.5,0.7,3.6
			c0.5,0.7,1.8,0.7,2.1,1.4c0.2,0.5-0.8,0.9-0.7,1.4c0.3,1.5,2,2.5,2.9,3.6c2.2,2.7,0.7,1.6,2.9,4.3c0.4,0.5,1,0.9,1.4,1.4
			c1.1,1.3,1.6,3.1,2.9,4.3c0.4,0.4,1.1,0.3,1.4,0.7c0.6,0.6,1,1.4,1.4,2.1c0.3,0.5,0.3,1.1,0.7,1.4c0.2,0.2,0-0.5,0-0.7
			c0.5,0.5,1.1,0.9,1.4,1.4c0.7,1.1-1.2,0.5,0.7,1.4c0.2,0.1,0.5-0.1,0.7,0c0.6,0.3,0.9,1,1.4,1.4c0.7,0.5,1.4,0.9,2.1,1.4
			c0.8,0.5,3.9,3,5,3.6s2.5,0.8,3.6,1.4c1.8,1.8,0.8,1.1,2.9,2.1c0.5,0.2,0.9,0.5,1.4,0.7c0.2,0.1,0.5-0.2,0.7,0s-0.2,0.6,0,0.7
			c0.4,0.2,1,0,1.4,0c0.2,0-0.7-0.2-0.7,0c0,0.3,0.5,0.5,0.7,0.7s0.5,0.5,0.7,0.7c0.7,0.7,1.4,1.4,2.1,2.1c0.2,0.2,0.6,0.4,0.7,0.7
			c0.1,0.2-0.1,0.5,0,0.7c0.2,0.3,0.4,0.7,0.7,0.7c0.2,0,0-1,0-0.7c0,0.2,0.1,3.5,0,3.6c-0.1,0.2-0.6-0.2-0.7,0
			c-0.2,0.7,0.1,1.4,0,2.1c-0.1,0.7-0.6,1.4-0.7,2.1c-0.1,0.7,0.2,1.4,0,2.1c-0.2,0.7-0.3,1.5-0.7,2.1c-0.1,0.2-0.7-0.2-0.7,0
			c0,0.8,0.7,1.4,0.7,2.1c0,0.2-1.4,2.5-1.4,2.9c-0.1,0.5,0.2,1,0,1.4c-0.1,0.2-0.6-0.2-0.7,0c-0.2,0.4,0.1,1,0,1.4
			c-0.1,0.5-0.5,0.9-0.7,1.4c-0.1,0.2,0.1,0.5,0,0.7c-0.2,0.3-0.7,0.4-0.7,0.7s1,0.5,0.7,0.7c-0.2,0.2-0.4-0.9-0.7-0.7
			c-3.9,2,0.7,0.8-0.7,2.1c-0.2,0.2-0.5-0.2-0.7,0c-0.3,0.3,0.2,1,0,1.4c-1.4,2.8-0.2-3.2-1.4,2.9c-0.1,0.5,0,1,0,1.4
			c0,0.2,0.2,0.7,0,0.7c-0.3,0-0.7-1.1-0.7-0.7c0,0.5,0.5,0.9,0.7,1.4c0.1,0.2,0,0.5,0,0.7c0,1.2-0.3,2.6,0.7,3.6
			c0.2,0.2-0.1-0.9,0-0.7c1.7,0.4,0.4,2,0.7,2.9c0.2,0.5,0.5,0.9,0.7,1.4c0.1,0.2-0.1,0.5,0,0.7c0.2,0.5,0.4,1,0.7,1.4
			c0.2,0.3,0.6,0.4,0.7,0.7c0.2,0.7-0.2,1.5,0,2.1c0.1,0.2,0.5-0.2,0.7,0c0.4,0.4,0.4,1,0.7,1.4c0.4,0.7,1,1.4,1.4,2.1
			c0.3,0.5,0.5,1,0.7,1.4c0.5,0.7,1,1.4,1.4,2.1c1.3,2.2,0,0.9,2.1,3.6c0.6,0.8,1.4,1.4,2.1,2.1c0.5,0.5,1,1,1.4,1.4
			c0.2,0.2,0.4,0.7,0.7,0.7s0.4-0.7,0.7-0.7c0.1,0,1.8,1.9,2.1,2.1c0.4,0.3,1,0.4,1.4,0.7c0.3,0.2,0.4,0.6,0.7,0.7
			c0.2,0.1,0.5-0.2,0.7,0s-0.2,0.5,0,0.7s0.5-0.2,0.7,0s-0.2,0.7,0,0.7c0.3,0,0.4-0.7,0.7-0.7c1.2,0,0.5,1,0.7,1.4
			c0.2,0.3,0.5,0.5,0.7,0.7c0.5,0.5,1,0.9,1.4,1.4c0.3,0.4,0.3,1.1,0.7,1.4c0.7,0.5,1.4,1,2.1,1.4c0.2-0.2,0.4-0.9,0.7-0.7
			c0.5,0.2,0.5,0.9,0.7,1.4c0.1,0.2-0.2,0.7,0,0.7c0.3,0,0.4-0.7,0.7-0.7c0.5,0-0.5,1.4,0,1.4c0.3,0,0.4-0.7,0.7-0.7
			c0.5,0-0.5,1.4,0,1.4c0.3,0,0.5-1,0.7-0.7c1.4,1.4-1.8,1.6,0.7,2.9c0.3,0.2,0.7-1.1,0.7-0.7c0,0.5-0.7,0.9-0.7,1.4
			c0,0.3,0.4,0.7,0.7,0.7c0.3,0,0.5-1,0.7-0.7c0.3,0.3-0.3,1.1,0,1.4c0.2,0.2,0.5-1,0.7-0.7c0.3,0.3-0.1,1,0,1.4
			c0.1,0.7,0.5,1.4,0.7,2.1c0.1,0.2-0.1,0.5,0,0.7c0.2,0.3,0.6,0.4,0.7,0.7c0.2,0.5-0.3,1.1,0,1.4c0.2,0.2,0.7-1.1,0.7-0.7
			c0,0.5-0.7,0.9-0.7,1.4c0,0.3,0.4,0.7,0.7,0.7c0.2,0-0.2-0.9,0-0.7c0.4,0.4,0.3,1.1,0.7,1.4c0.2,0.2-0.2-0.7,0-0.7s0,0.5,0,0.7
			s0.2,0.7,0,0.7s-0.2-0.7,0-0.7c0.3,0,0.7,0.4,0.7,0.7c0,0.2-0.7-0.2-0.7,0c0,0.3,0.4,0.7,0.7,0.7c0.3,0,0.5-1,0.7-0.7
			c0.2,0.2-0.9,0.4-0.7,0.7c1.8,3.6,1.4,0,1.4,0c0.2,0-0.1,0.5,0,0.7c0.2,0.3,0.4,0.7,0.7,0.7c0.2,0,0-1,0-0.7c0,0.5-0.3,1.1,0,1.4
			c0.2,0.2,0.7-0.4,0.7-0.7c0-0.2-0.5-0.2-0.7,0s-0.1,0.5,0,0.7c1.5,3,0.3-0.4,0.7,0c0.4,0.4,0.7,0.9,0.7,1.4c0,0.3-1-0.6-0.7-0.7
			c1.6-0.5,3.3-0.4,4.9-0.6"/>
		<path id="path1349" inkscape:connector-curvature="0" class="st14" d="M188.3,242.4c-4.5,15.3,9.9,4.2,13.6,7.9
			c0.4,0.4,0.3,1.1,0.7,1.4c1.3,0.9,2.9,1.4,4.3,2.1c1.7,0.9,3.4,1.8,5,2.9c1.3,0.8,2.3,2,3.6,2.9c1.1,0.8,2.4,1.4,3.6,2.1
			c1.2,1,2.4,1.9,3.6,2.9c0.7,0.5,1.7,0.7,2.1,1.4c0.2,0.3-0.9,0.4-0.7,0.7c0.2,0.5,0.9,0.7,1.4,0.7c0.3,0-0.7-0.4-0.7-0.7
			c0-0.5,1.4,0.2,1.4,0.7c0,0.3-0.8,0.4-0.7,0.7c0.2,0.6,1.1,0.8,1.4,1.4c0.1,0.2-0.5,0-0.7,0c0.5,0.7,0.8,1.5,1.4,2.1
			c0.2,0.2,0.7-0.2,0.7,0c0,0.8-1,1.4-0.7,2.1c0.2,0.5,1.2-0.4,1.4,0c0.4,0.6-0.3,1.5,0,2.1c0.2,0.3,0.7-1.1,0.7-0.7
			c0,0.8-1,1.4-0.7,2.1c0.2,0.5,1,0,1.4,0c0.2,0-0.8-0.2-0.7,0c0.3,0.8,1.2,1.3,1.4,2.1c0.1,0.2-0.8-0.2-0.7,0
			c0.3,1,1.2,1.8,1.4,2.9c0.1,0.3-0.8,0.4-0.7,0.7c1.5,5.9,2.1-2.6,2.1,5.7c0,0.5-0.7,0.9-0.7,1.4c0,0.8,0.5,1.4,0.7,2.1
			c1.8,1.5,0.3,3.4,0.7,5c0.1,0.5,0.7,0.9,0.7,1.4c0,0.8-0.6,1.4-0.7,2.1c-0.1,0.7,0,1.4,0,2.1c0,0.2-0.1,0.5,0,0.7
			c2,4-0.3-1.1,0.7,2.9c0.1,0.5,0.7,0.9,0.7,1.4c0,0.8-0.6,1.4-0.7,2.1c-0.1,0.9,0,6.5,0,7.1c0,1.1-0.2,4.8,0,5.7
			c0.1,0.7,0.5,1.4,0.7,2.1c0.1,0.2-0.1,0.5,0,0.7c0.2,0.5,0.7,0.9,0.7,1.4c0,1-0.9,1.9-0.7,2.9c0.7,5.1,2.1-0.7,2.1,4.3
			c-2.1,6.4-0.5-0.8,0.7,2.9c0.2,0.5-0.7,0.9-0.7,1.4c0,0.7,1.4,0.8,1.4,1.4c0,0.3-0.6,0.4-0.7,0.7c0,0-0.1,3.4,0,3.6
			c0.5,1,1,1.9,1.4,2.9c-0.2,0.2-0.7,0.4-0.7,0.7c0,0.5,0.5,0.9,0.7,1.4c0.3,0.7,0.7,1.4,0.7,2.1c0,0.2-0.5,0-0.7,0
			c0,0.7-0.1,1.4,0,2.1s0.3,1.5,0.7,2.1c0.1,0.2,0.7-0.2,0.7,0c0,0.5-0.3,1.1-0.7,1.4c-0.2,0.2,0-1,0-0.7c0,0.5-0.3,1.1,0,1.4
			c0.5,0.5,1.4-3.6,1.4,0.7c0,0.3-0.4-0.7-0.7-0.7c-0.2,0,0,0.5,0,0.7c0,0.5,0.2,1,0,1.4c-0.3,0.6-0.8,1.2-1.4,1.4
			c-0.3,0.1-0.7-1.1-0.7-0.7c0,0.8,1,1.4,0.7,2.1c-0.2,0.5-1.1-0.3-1.4,0c-0.2,0.2,0.5,0.5,0.7,0.7c-0.2,0.5-0.2,1.2-0.7,1.4
			c-0.3,0.2-0.7-1.1-0.7-0.7c0,0.5,0.3,1.1,0.7,1.4c0.2,0.2,0-1,0-0.7c0,0.5,0.4,1.2,0,1.4c-0.5,0.2-1.1-0.3-1.4-0.7
			c-0.2-0.2,0.6-0.2,0.7,0c0.2,0.4,0,1,0,1.4c0,0.2,0.2-0.9,0-0.7c-0.4,0.4-0.3,1.1-0.7,1.4c-0.2,0.2,0.2-0.7,0-0.7
			c-0.3,0-0.7,0.4-0.7,0.7c0,0.2,0.6-0.2,0.7,0c0.3,4.4-0.2,0.5,0,0.7c0.4,0.4,0.3,1.1,0.7,1.4c0.2,0.2-0.2-0.9,0-0.7
			c0.4,0.4,0.7,0.9,0.7,1.4c0,0.3-0.5-1-0.7-0.7c-0.3,0.3-0.3,1.1,0,1.4c0.2,0.2,0.5-1,0.7-0.7c0.3,0.3-0.3,1.1,0,1.4
			c0.2,0.2,0.7-0.4,0.7-0.7c0-0.2-0.8-0.2-0.7,0c0.3,0.6,1.2,0.8,1.4,1.4c0.4,1.3-2.8,0.1-0.7,2.1c1.1,1.1,0.7-4,0.7,0.7
			c1.4,0.2,2.9,0.5,4.3,0.7c0-0.2-0.2-0.7,0-0.7s-0.1,0.5,0,0.7c0.2,0.3,0.4,0.7,0.7,0.7c0.2,0-0.2-0.9,0-0.7
			c0.4,0.4,0.7,0.9,0.7,1.4c0,0.3-1-1-0.7-0.7c0.5,0.5,1,1,1.4,1.4c0.2,0.2-0.7-0.4-0.7-0.7c0-0.2,0.6-0.2,0.7,0
			c0.2,0.4-0.3,1.1,0,1.4c2.4,2.4,0-3,0-0.7c0,0.5,0.2,1.2,0.7,1.4c0.3,0.2,0.7-0.4,0.7-0.7c0-0.2-0.7-0.2-0.7,0
			c0,0.5,0.3,1.1,0.7,1.4c0.2,0.2,0.7-0.2,0.7,0c0,0.3-0.5,1-0.7,0.7c-0.6-0.6,1.4-0.9,1.4-0.7c0,3.6-1.1,1.1-0.7,0.7
			c1.2-1.2,0.2,1.4,1.4,1.4c0.2,0-0.2-0.7,0-0.7c0.5,0,1.2,1.4,0.7,1.4c-1,0,0.7-1.7,0.7-0.7c0,0.5-0.7,0.9-0.7,1.4
			c0,0.3,0.4-0.7,0.7-0.7s0.7,0.4,0.7,0.7c0,0.2-0.5,0-0.7,0"/>
		<path id="path1355" inkscape:connector-curvature="0" class="st14" d="M350.4,79.6c-0.2,1.2-0.5,2.4-0.7,3.6
			c-0.5,0.2-1.2,0.2-1.4,0.7c-1.5,0.9,0.4,2.4,0,3.6c-2,4,0.3-1.1-0.7,2.9c-0.1,0.3-1.4,2.7-1.4,2.9c0,0.3,0.6,0.4,0.7,0.7
			c0.1,0.3,0,3.2,0,3.6c0,0.5,0,1,0,1.4c0,0.7-0.3,1.5,0,2.1s1.1,0.8,1.4,1.4c5.2,9-1.1-1.1,1.4,6.4c0.4,1.3,1.6,2.3,2.1,3.6
			c0.6,1.4,0.9,2.9,1.4,4.3c0.4,1.2,0.9,2.4,1.4,3.6c0.7,1.7,1.4,3.3,2.1,5c0.4,1,1.1,1.8,1.4,2.9c0.4,1.4,0.4,2.9,0.7,4.3
			c0.2,1,0.7,1.9,0.7,2.9c0,0.8-0.8,1.4-0.7,2.1c-0.2,2.3,1.9,4.2,2.1,6.4c0.1,1.2-0.1,2.4,0,3.6c0.1,1.4,0.7,2.8,0.7,4.3
			c0,1-0.6,1.9-0.7,2.9c-0.2,2.1,0.3,4.3,0,6.4c-0.1,0.7-0.6,1.4-0.7,2.1c-0.2,1.4,0.5,2.9,0,4.3c-0.3,0.8-1.8,0.6-2.1,1.4
			c-0.3,0.7,0.9,1.4,0.7,2.1c-0.1,0.3-2.6,2.4-2.9,2.9c-0.4,0.6-0.4,1.4-0.7,2.1c-0.3,0.9-1.6,3.2-2.1,3.6c-0.8,0.7-2,0.8-2.9,1.4
			c-0.4,0.3-0.4,1-0.7,1.4c-0.4,0.7-0.8,1.6-1.4,2.1c-0.8,0.7-1.9,0.9-2.9,1.4c-1,0.6-1.4,2.3-2.1,2.9c-0.4,0.3-1-0.2-1.4,0
			c-0.3,0.1-0.5,0.5-0.7,0.7c-1,0-1.9-0.2-2.9,0c-0.3,0.1-0.4,0.6-0.7,0.7c-0.7,0.2-1.4-0.1-2.1,0c-6.1,1,2.5,0.7-5,0.7
			c-0.2,0-0.5,0.1-0.7,0c-0.5-0.2-1-0.4-1.4-0.7c-0.3-0.2-0.4-0.7-0.7-0.7c-0.3,0-0.4,0.8-0.7,0.7c-1.1-0.4-1.9-1.5-2.9-2.1
			c-0.7-0.5-1.5-0.9-2.1-1.4c-0.5-0.4-0.9-1-1.4-1.4c-0.4-0.3-1.1-0.3-1.4-0.7c-0.2-0.2,0.9,0.1,0.7,0c-0.7-0.3-1.5-0.3-2.1-0.7
			c-0.4-0.3,0.4-1.1,0-1.4c-0.9-0.6-2.1-0.7-2.9-1.4c-0.3-0.3,0.2-1,0-1.4c-0.1-0.2-0.5,0-0.7,0c0-0.5,0-1,0-1.4c0-0.2,0-0.5,0-0.7
			s0.2-0.5,0-0.7c-0.3-0.3-1.3,0.6-0.7-0.7c0.2-0.3,0.6-0.4,0.7-0.7c0.2-0.4-0.3-1.1,0-1.4c0.4-0.4,1.3-0.2,1.4-0.7
			c0.2-0.5-0.9-0.9-0.7-1.4c0.2-0.5,1.3-0.2,1.4-0.7c0.2-0.5-0.9-0.9-0.7-1.4c0.2-0.5,1.2-0.2,1.4-0.7c0.2-0.3-0.7-0.4-0.7-0.7
			s0.4-0.6,0.7-0.7c0.2-0.1,0.7,0.2,0.7,0c0-0.3-0.7-0.4-0.7-0.7c0-0.2,0.5,0,0.7,0s0.7-0.2,0.7,0s-0.5,0-0.7,0
			c0.7,0.2,1.6,0.2,2.1,0.7c0.7,0.5,0.9,1.5,1.4,2.1c0.2,0.3,0.5,0.4,0.7,0.7c0.3,0.4,0.3,1.1,0.7,1.4c0.6,0.5,1.6,0.2,2.1,0.7
			c0.2,0.2-0.7,0.4-0.7,0.7c0,0.5,1.4-0.5,1.4,0c0,0.3-0.7,0.4-0.7,0.7c0,0.5,1.4-0.5,1.4,0c0,0.3-0.7,0.4-0.7,0.7
			c0,0.5,1.4-0.5,1.4,0c0,0.3-0.9,0.4-0.7,0.7c0.2,0.5,1.2,0.2,1.4,0.7c0.2,0.3-0.9,0.4-0.7,0.7c0.2,0.5,1,0.4,1.4,0.7
			c0.3,0.2,0.5,0.5,0.7,0.7c0.5,0.5,1,0.9,1.4,1.4c0.3,0.4,0.3,1.1,0.7,1.4c0.2,0.2,0.5-0.1,0.7,0c0.5,0.2,1.1,0.3,1.4,0.7
			c0.6,0.6,1,1.4,1.4,2.1c0.3,0.5,0.3,1.1,0.7,1.4c0.6,0.5,1.5,0.3,2.1,0.7c3.2,1.9,0,0.7,2.1,2.9c2.8,2.8,1.5,0,3.6,2.9
			c0.3,0.4,0.2,1.2,0.7,1.4c0.6,0.3,1.5-0.2,2.1,0c0.2,0.1-0.2,0.6,0,0.7c0.7,0.2,1.5-0.2,2.1,0c0.2,0.1-0.1,0.5,0,0.7
			c0.7,1.4,1.4,0.2,2.9,0.7c0.2,0.1-0.2,0.5,0,0.7c2.8,2.8,0.4-0.2,2.1,0.7c0.3,0.2,0.4,0.6,0.7,0.7c0.7,0.3,1.5,0.3,2.1,0.7
			c0.2,0.1-0.2,0.6,0,0.7c0.4,0.2,1-0.2,1.4,0c0.3,0.1,1,0.5,0.7,0.7c-0.2,0.2-1.1-0.7-0.7-0.7c0.5,0,1.1,0.3,1.4,0.7
			c0.2,0.2-0.9-0.2-0.7,0c0.4,0.4,0.9,0.7,1.4,0.7c0.3,0-0.5-1-0.7-0.7c-1.4,1.4,1.1,1.8,1.4,2.1c0.2,0.2-0.9-0.2-0.7,0
			c0.6,0.6,1.5,0.8,2.1,1.4c0.1,0.1-0.1,2.1,0,2.1c0.5,0,0.9-0.7,1.4-0.7c0.3,0-0.6,0.4-0.7,0.7c-0.1,0.2-0.2,0.7,0,0.7
			c0.5,0,1.1-1.1,1.4-0.7c0.4,0.4-0.3,1.1-0.7,1.4c-0.2,0.2-0.2-0.8,0-0.7c0.6,0.3,1,1,1.4,1.4c0.5,0.5,1.1,0.9,1.4,1.4
			c1.7,5.2-0.2,0.4,1.4,2.9c0,0,0.9,2.1,1.4,2.1c0.3,0,0.4-0.9,0.7-0.7c0.5,0.2,0.5,0.9,0.7,1.4c0.1,0.2,0.2,0.7,0,0.7
			s-0.2-0.8,0-0.7c0.5,0.5,1,1,1.4,1.4c-0.2,0-0.9-0.2-0.7,0c0.4,0.4,1.1,0.3,1.4,0.7c0.2,0.2-0.9-0.1-0.7,0
			c0.7,0.3,1.6,0.2,2.1,0.7c0.2,0.2-0.5,1-0.7,0.7c-0.2-0.2,0.4-0.9,0.7-0.7c0.5,0.2,0.3,1.1,0.7,1.4c0.2,0.2,0.5-0.2,0.7,0
			s-0.2,0.5,0,0.7c0.4,0.4,0.9,0.7,1.4,0.7c0.2,0-0.2-0.9,0-0.7c0.4,0.4,0.3,1.1,0.7,1.4c0.4,0.4,1.1,0.3,1.4,0.7c0.2,0.2-1,0-0.7,0
			c0.5,0,1,0,1.4,0c0.2,0-0.9-0.2-0.7,0c0.4,0.4,0.9,0.7,1.4,0.7c0.3,0-1-0.5-0.7-0.7c0.2-0.2,0.4,0.7,0.7,0.7c3.6,0.2,7.2,0,10.8,0
			"/>
	</g>
</g>
<g id="layer8" inkscape:groupmode="layer" inkscape:label="Layer 6" class="st0">
	<g id="g1216" transform="matrix(2.3751658,0,0,2.3751658,23.0201,-485.16451)" class="st1">
		<rect id="rect935" x="65.7" y="251.6" class="st15" width="186" height="242.1"/>
		<rect id="rect937" x="73.8" y="261.2" class="st4" width="66.1" height="8.9"/>
		<rect id="rect939" x="73.8" y="281.2" class="st4" width="106" height="4.8"/>
		<rect id="rect941" x="73.8" y="288.7" class="st4" width="106" height="4.8"/>
		<rect id="rect943" x="73.8" y="296.7" class="st4" width="106" height="4.8"/>
		<rect id="rect945" x="73.8" y="304.7" class="st4" width="106" height="4.8"/>
		
			<linearGradient id="rect947_1_" gradientUnits="userSpaceOnUse" x1="-195.3524" y1="390.0148" x2="-191.7443" y2="390.0148" gradientTransform="matrix(21.3219 0 0 21.3219 4391.2661 -7943.7432)">
			<stop  offset="0" style="stop-color:#000000"/>
			<stop  offset="1" style="stop-color:#000000"/>
		</linearGradient>
		<rect id="rect947" x="226" y="260.5" class="st16" width="13.6" height="223.2"/>
		<rect id="rect997" x="224.7" y="382" class="st17" width="17.2" height="18.2"/>
		
			<linearGradient id="rect999_1_" gradientUnits="userSpaceOnUse" x1="-195.4244" y1="390.6855" x2="-191.1427" y2="390.6855" gradientTransform="matrix(21.3219 0 0 21.3219 4391.5186 -7943.7432)">
			<stop  offset="0" style="stop-color:#FF0000"/>
			<stop  offset="1" style="stop-color:#000000"/>
		</linearGradient>
		<rect id="rect999" x="224.7" y="382" class="st18" width="16.2" height="8.8"/>
		
			<linearGradient id="rect1007_1_" gradientUnits="userSpaceOnUse" x1="-200.854" y1="392.1326" x2="-171.6538" y2="392.1326" gradientTransform="matrix(19.1087 0 0 19.1087 3913.7913 -7091.5884)">
			<stop  offset="0" style="stop-color:#000000"/>
			<stop  offset="1" style="stop-color:#000000"/>
		</linearGradient>
		<rect id="rect1007" x="75.7" y="332.1" class="st19" width="98.9" height="138.9"/>
		<path id="path1357" inkscape:connector-curvature="0" class="st20" d="M98.9,329.4c-3.5,8.2,8.1,3.1,10,6.5
			c0.3,0.6-0.4,1.3-0.2,1.9c0.1,0.4,0.8,0.6,0.9,1c0.1,0.6-0.4,1.3-0.2,1.9c0.1,0.4,0.8,0.6,0.9,1c0.3,1.5-0.9,3.3-0.5,4.7
			c0.1,0.4,0.8,0.6,0.9,1c0.1,0.6-0.1,1.3-0.2,1.9c0.2,1,0.4,2,0.7,2.9c0.2,0.7,0.9,1.3,0.8,2s-1.3,1.1-1.2,1.8c0.1,1.1,1.3,2,1.7,3
			c0.1,0.3-0.1,0.6-0.1,0.9c0.1,1.3,0.5,2.6,0.6,3.9c0,1-0.4,1.9-0.3,2.8c0.1,0.7,0.9,1.3,0.8,2s-1.1,1.1-1.2,1.8
			c0,0.4,0.7,0.6,0.9,1c0.4,0.6,0.9,1.3,0.8,2c0,0.4-1.1,0.4-1.1,0.9c-0.1,0.7,0.6,1.3,0.8,2c0.3,1,0.5,2,0.7,2.9
			c0.2,1,0.5,1.9,0.7,2.9c0.2,1.6,0.1,3.3,0.5,4.8c0.3,1.4,1.1,2.6,1.6,4c0.6,1.6,0.9,3.3,1.5,4.9c0.4,1.1,1.2,2,1.7,3
			c0.3,0.6,0.5,1.3,0.8,2c0.2,0.5,2.6,4.3,2.5,5c0,0.4-1.1-1.5-0.9-1c0.4,1.1,1.1,2.1,1.7,3c0.2,0.4,0.5,0.8,0.9,1
			c0.3,0.2,1-0.2,1,0.1c0,0.4-1.4,0.5-1.1,0.9c0.4,0.5,1.4-0.1,2,0.2c0.3,0.2,0.2,1-0.1,0.9c-0.3,0-0.2-1,0.1-0.9
			c0.7,0.1,1.3,0.7,1.9,1.1c3,3.5-0.9-0.5,1.9,1.1c0.4,0.2,0.4,1,0.9,1s0.7-1.1,1.1-0.9c0.6,0.4,0.2,1.5,0.8,2
			c0.5,0.4,1.6-0.3,2,0.2c0.3,0.3-1.5,0.6-1.1,0.9c0.9,0.5,2.1,0,3,0.3c0.4,0.2,1.3,0.8,0.9,1c-0.4,0.3-1.4-1.1-0.9-1
			c0.7,0.1,1.2,0.9,1.9,1.1c1,0.3,4.7,0.5,6,0.6s2.7,0.3,4,0.4c0.3,0,1-0.2,1,0.1c0,0.3-1.3,0.1-1-0.1c0.6-0.4,1.4-0.7,2.1-0.8
			c0.7-0.1,1.3,0.3,2,0.2c1.1-0.1,2.1-0.6,3.1-0.7c1,0.1,2,0.2,3,0.3c0-0.3-0.2-0.8,0.1-0.9c0.6-0.2,1.4,0.5,2,0.2
			c0.7-0.3,1.1-1.1,1.2-1.8c0-0.4-1.2,1.3-1.1,0.9c0.1-0.7,0.5-1.5,1.2-1.8c0.4-0.2,1,0.6,0.9,1c0,0.3-1.2,0.2-1-0.1
			c5.5-4.2,1,0,2.3-2.6c0.3-0.6,0.5-1.5,1.2-1.8c0.4-0.2,1.3,0.8,0.9,1c-0.4,0.3-1-0.6-0.9-1c0-0.4,0.7-0.7,1.1-0.9
			c0.3-0.1,1,0.4,1,0.1c0.1-1-0.5-1.9-0.7-2.9c-0.1-0.6,0.1-1.3,0.2-1.9c0.2-1.9,0.4-3.8,0.6-5.7c0-0.3-0.1,1.3-0.1,0.9
			c0.1-0.9,0.8-2,0.3-2.8c-0.3-0.6-1.6,0.3-2-0.2c-0.3-0.3,1.2-0.4,1.1-0.9c-0.2-0.9-1.5-1.2-1.8-2.1c-0.1-0.3,0.7,0.1,1,0.1
			c0.1-0.6,0.5-1.3,0.2-1.9c-0.4-0.6-1.4-0.6-1.9-1.1c-0.2-0.2,1.3,0.1,1,0.1c-0.7-0.1-1.8,0.4-2-0.2c-0.3-0.7,1.4-1.1,1.2-1.8
			c-0.2-0.7-1.5-0.5-1.9-1.1c-0.5-0.9-0.3-2-0.7-2.9c-0.2-0.4-0.7-0.6-0.9-1c-0.2-0.6,0.6-1.4,0.2-1.9c-0.5-0.6-1.4-0.6-1.9-1.1
			c-0.2-0.2,1-0.2,1,0.1c0,0.3-0.9,0.2-1-0.1c-0.2-0.6,0.6-1.4,0.2-1.9c-0.3-0.3-1.1,0.4-1.1,0.9c0,0.3,0.8,0.4,1,0.1
			c0.4-0.5,0.1-1.3,0.2-1.9c0-0.3,0.2,0.7-0.1,0.9c-0.3,0.2-1,0.2-1-0.1c0-0.3,1.3,0.1,1,0.1c-6.6-0.6,3.6,0.3-3-0.3
			c-0.3,0,1.1,0.4,1,0.1c-0.3-0.8-1.2-1.4-1.8-2.1c-0.3-0.3,0.9,1.5,0.9,1c0.1-0.7-0.2-1.6-0.8-2c-0.4-0.2-1.1,0.4-1.1,0.9
			c0,0.3,0.7,0.3,1,0.1c0.8-0.7-0.6-2-1.8-2.1c-0.5,0,0.6,0.7,0.9,1c0.1-0.6,0.8-1.6,0.2-1.9c-0.6-0.4-1.4,0.8-2.1,0.8
			c-0.5,0,1.2-0.4,1.1-0.9c-0.2-0.9-1.2-1.4-1.8-2.1c-0.3-0.3,1.4,1.1,0.9,1c-0.7-0.1-1.6-0.5-1.9-1.1c-0.2-0.4,0.6-0.9,1.1-0.9
			c0.3,0-0.8,4.1-2.1,0.8c-1.3-3.4,2.5-1.9,1.1-0.9c-0.7,0.5-1.9-0.8-1.9-1.1c0-0.4,0.8-1.2,1.1-0.9c0.3,0.3-0.6,0.9-1.1,0.9
			s-1-0.6-0.9-1c0-0.3,1-0.2,1,0.1c-0.1,1.3-0.7,2.6-1.4,3.7c-0.2,0.3-1-0.4-1-0.1c-0.1,1,0.6,1.9,0.7,2.9c0.1,1-0.5,5-0.6,5.7
			c-0.8,7.6-0.3-3.2,1.8,2.1c0.3,0.7-1.1,1.1-1.2,1.8c-0.1,0.9,2.5,1.5,1.8,2.1c-0.4,0.3-1.4-1.1-0.9-1c2,0.2,2.8,2.2,0.8,2
			c-0.3,0-0.2-1,0.1-0.9c0.5,0,0.6,0.7,0.9,1c0.3,0.3,0.6,0.7,0.9,1c0.3,0.3,0.7,0.6,0.9,1c0.1,0.3-0.4,0.9-0.1,0.9
			c0.5,0,1.1-0.4,1.1-0.9c0-0.3-1-0.4-1-0.1c-0.1,0.7,0.3,1.4,0.8,2c0.2,0.2,1-0.2,1,0.1c-0.1,0.7-1.5,1.1-1.2,1.8
			c0.2,0.6,1.6-0.3,2,0.2c0.3,0.3-1.3,0.4-1.1,0.9c0.3,0.7,1.8,0.4,1.9,1.1c0.2,1-1.5,1.8-1.3,2.7c0.1,0.6,1.9-0.4,2,0.2
			c0.2,1-1.5,1.8-1.3,2.7c0.1,0.6,1.9-0.4,2,0.2c0.2,1-1.5,1.8-1.3,2.7c0.1,0.6,1.9-0.4,2,0.2c0.2,1-1.2,1.7-1.3,2.7
			c0,0.4,0.6-0.9,1.1-0.9c0.3,0-0.2,0.6-0.1,0.9c0.2,0.7,0.9,1.3,0.8,2c0,0.4-0.7,0.6-1.1,0.9c-0.1,0.6-0.3,1.3-0.2,1.9
			c0.1,0.7,0.4,1.4,0.8,2c0.2,0.4,1,0.6,0.9,1c0,0.3-0.7-0.3-1-0.1c-0.5,0.4,0.5,2-0.2,1.9c-0.3,0-0.2-1,0.1-0.9
			c0.3,0-0.3,0.7-0.1,0.9c0.2,0.2,0.8-0.1,1,0.1s0.2,1-0.1,0.9c-0.5,0-0.4-1-0.9-1c-0.3,0-0.1,0.6-0.1,0.9c-0.2,2.2-0.2-0.5,0.8,2
			c0.1,0.3-0.1,0.6-0.1,0.9s-0.1,0.6-0.1,0.9c-0.1,1.3,0.1,2.6-0.4,3.8c-0.1,0.3-0.7-0.3-1-0.1c-0.7,0.5,0.7,2.9-1.3,2.7
			c-0.3,0-0.2-1,0.1-0.9c0.3,0,0.2,0.7-0.1,0.9c-0.3,0.2-0.7,0-1-0.1c-1-0.4-2.3-1.2-2.8-2.2c-0.4-0.6-0.9-1.3-0.8-2
			c0-0.4,0.8-1.2,1.1-0.9c0.3,0.3-0.9,1.2-1.1,0.9c-0.6-1.2-0.7-2.6-0.6-3.9c0-0.3,1,0.4,1,0.1c0.1-1-0.5-1.9-0.7-2.9
			c0-0.3,0.1-0.6,0.1-0.9s-0.2-1,0.1-0.9c0.3,0-0.1,1.3-0.1,0.9c0.1-0.6,0.1-1.3,0.2-1.9c0-0.3-0.3,0.7-0.1,0.9
			c0.2,0.2,0.7,0.1,1,0.1c0.7,0.1,1.3,0.1,2,0.2c0.3,0-1,0.2-1-0.1c0-0.3,0.9-0.2,1,0.1c0.2,0.6-0.6,1.4-0.2,1.9
			c0.4,0.5,1.4-0.1,2,0.2c0.8,0.4,1.6,2.6,1.7,3c0.2,0.8-0.6,1.9-0.2,1.9c0.7,0.1,1.6-1.3,2.1-0.8c0.5,0.6-1.4,1.1-1.2,1.8
			c0.2,0.7,1.6,0.5,1.9,1.1c0.2,0.4-1.2,0.4-1.1,0.9c0.2,1.1,1.4,1.9,1.7,3c0.1,0.3-1.1-0.4-1-0.1c0.3,1.1,1.4,1.9,1.7,3
			c0,0.1-5.1-1-0.2,1.9c0.4,0.2,1.2-1.3,1.1-0.9c-0.1,0.7-0.6,1.3-1.2,1.8c-0.3,0.2,0.1-1.3,0.1-0.9c-0.1,0.6-0.1,1.3-0.2,1.9
			c0,0.3-0.1-1.2,0.1-0.9c0.5,0.6,0.2,1.6,0.8,2c0.4,0.2,1.2-1.3,1.1-0.9c-3.4,7.2-0.4-1.3,0.5,4.8c0.4,2.5-3.7,1.6,0.8,2
			c0.7,0.1-5.7-0.9-1.2,1.8c0.6,0.4,1.5-1.1,2.1-0.8c0.6,0.3-0.4,1.3-0.2,1.9c0.1,0.3,0.8-0.1,1,0.1s-0.4,0.8-0.1,0.9
			c0.6,0.3,1.8-0.4,2,0.2c0.3,0.7-1.5,1.1-1.2,1.8c0.2,0.6,1.3,0.1,2,0.2c0.3,0-1-0.4-1-0.1c-0.1,0.7,0.3,1.4,0.8,2
			c0.2,0.2,0.1-1.3,0.1-0.9c-0.1,0.6-0.8,1.6-0.2,1.9c0.6,0.4,1.5-0.3,2.1-0.8c0.3-0.2-0.8-0.4-1-0.1c-0.4,0.5-0.1,1.3-0.2,1.9
			c0,0.3,0.1-1.3,0.1-0.9c-0.1,0.6-0.1,1.3-0.2,1.9c0,0.3-0.1-1.2,0.1-0.9c0.5,0.6,0.2,1.6,0.8,2c0.4,0.2,1.2-1.3,1.1-0.9
			c-0.1,0.7-1.7,1.2-1.2,1.8c0.5,0.6,1.6-1.3,2.1-0.8c0.5,0.6-0.6,1.3-1.2,1.8c-0.3,0.2-0.2-0.7,0.1-0.9c0.3-0.2,0.8-0.1,1,0.1
			c0.5,0.6,0.9,1.3,0.8,2c0,0.4-0.5-1.3-0.9-1c-0.5,0.4-0.3,1.3-0.2,1.9c0.5,4,1.3,8,2,12.1"/>
	</g>
</g>
<g id="layer9" inkscape:groupmode="layer" inkscape:label="ZUI_Site_internet" class="st0">
	<g id="g2468" transform="matrix(1.3243189,0,0,1.3243189,-73.724186,-52.477805)" class="st1">
		<rect id="rect3112" x="267.7" y="296.5" class="st21" width="63" height="4"/>
		<rect id="rect3114" x="267.7" y="302.5" class="st21" width="75.1" height="4"/>
		<rect id="rect3116" x="267.7" y="308.5" class="st21" width="63" height="4"/>
		<rect id="rect817-2" x="158.2" y="214.2" class="st22" width="399" height="254.9"/>
		
			<linearGradient id="rect3088_1_" gradientUnits="userSpaceOnUse" x1="-312.5453" y1="201.0333" x2="-299.4491" y2="201.0333" gradientTransform="matrix(18.7441 0 0 17.0758 6329.2109 -3027.5981)">
			<stop  offset="0" style="stop-color:#000000"/>
			<stop  offset="1" style="stop-color:#000000"/>
		</linearGradient>
		<rect id="rect3088" x="470.8" y="354.2" class="st23" width="85.8" height="102"/>
		<path id="path3090" inkscape:connector-curvature="0" sodipodi:nodetypes="ccc" class="st24" d="M470.8,354.2l70,50.7l16.1,11"/>
		<path id="path3092" inkscape:connector-curvature="0" sodipodi:nodetypes="cc" class="st24" d="M470.8,455.7l86.3-62.4"/>
		<rect id="rect3096" x="241.4" y="323.7" class="st17" width="117.7" height="7.8"/>
		<rect id="rect3100" x="263.3" y="337.2" class="st17" width="115.5" height="5.7"/>
		<rect id="rect3104" x="294.5" y="330.1" class="st17" width="124.1" height="23.4"/>
		<rect id="rect3106" x="383.1" y="280.4" class="st25" width="80.8" height="7.8"/>
		<rect id="rect3108" x="383.1" y="292.4" class="st25" width="96.4" height="7.8"/>
		<rect id="rect3110" x="383.1" y="304.3" class="st25" width="80.8" height="7.8"/>
		
			<linearGradient id="rect3118_1_" gradientUnits="userSpaceOnUse" x1="-147.2712" y1="275.7642" x2="-134.175" y2="275.7642" gradientTransform="matrix(2.6651 0 0 1.9991 904.7944 -312.619)">
			<stop  offset="0" style="stop-color:#000000"/>
			<stop  offset="1" style="stop-color:#000000"/>
		</linearGradient>
		<rect id="rect3118" x="512.3" y="232.7" class="st26" width="19.9" height="11.9"/>
		<path id="path3120" inkscape:connector-curvature="0" class="st27" d="M512.3,232.7l19.9,11.9"/>
		<path id="path3122" inkscape:connector-curvature="0" class="st27" d="M512.3,244.5l19.9-11.9"/>
		
			<linearGradient id="rect1586_1_" gradientUnits="userSpaceOnUse" x1="-300.9117" y1="203.9681" x2="-287.8155" y2="203.9681" gradientTransform="matrix(13.1567 0 0 13.1567 4151.0591 -2421.6492)">
			<stop  offset="0" style="stop-color:#000000"/>
			<stop  offset="1" style="stop-color:#000000"/>
		</linearGradient>
		<rect id="rect1586" x="192" y="222.8" class="st28" width="98.2" height="78.2"/>
		<path id="path3074" inkscape:connector-curvature="0" class="st29" d="M192,222.8l98.2,78.2"/>
		<path id="path3076" inkscape:connector-curvature="0" class="st29" d="M192,301l98.2-78.2"/>
		
			<linearGradient id="rect3130_1_" gradientUnits="userSpaceOnUse" x1="-315.9778" y1="201.9137" x2="-302.8816" y2="201.9137" gradientTransform="matrix(21.4293 0 0 15.6527 6929.6851 -2739.1858)">
			<stop  offset="0" style="stop-color:#000000"/>
			<stop  offset="1" style="stop-color:#000000"/>
		</linearGradient>
		<rect id="rect3130" x="158.5" y="374.8" class="st30" width="160" height="93"/>
		<path id="path3134" inkscape:connector-curvature="0" sodipodi:nodetypes="cc" class="st31" d="M158.5,467.9l159.4-92.4"/>
		<rect id="rect3138" x="294.5" y="353.5" class="st32" width="124.8" height="8.8"/>
		<rect id="rect3140" x="294.5" y="367" class="st32" width="148.9" height="8.8"/>
		<rect id="rect3142" x="294.5" y="380.5" class="st32" width="124.8" height="8.8"/>
	</g>
</g>
<g id="layer10" inkscape:groupmode="layer" inkscape:label="ZUI_smart_tv" class="st0">
	<g id="g2613" transform="matrix(2.5863656,0,0,2.5863656,-523.73117,381.51221)" class="st1">
		<rect id="rect1619-3" x="216.7" y="-82.4" class="st33" width="281" height="179.1"/>
		<rect id="rect3135" x="293.9" y="-15.4" class="st21" width="44.4" height="2.8"/>
		<rect id="rect3137" x="293.9" y="-11.2" class="st21" width="53" height="2.8"/>
		<rect id="rect3139" x="293.9" y="-6.9" class="st21" width="44.4" height="2.8"/>
		
			<linearGradient id="rect3141_1_" gradientUnits="userSpaceOnUse" x1="107.1161" y1="131.0463" x2="120.2123" y2="131.0463" gradientTransform="matrix(50.4142 0 0 45.721 -4963.0493 -5930.668)">
			<stop  offset="0" style="stop-color:#000000"/>
			<stop  offset="1" style="stop-color:#000000"/>
		</linearGradient>
		<rect id="rect3141" x="437.1" y="25.1" class="st34" width="60.5" height="71.6"/>
		<path id="path3143" inkscape:connector-curvature="0" sodipodi:nodetypes="ccc" class="st35" d="M437.1,25.1l49.4,35.6l11.4,7.8"
			/>
		<path id="path3145" inkscape:connector-curvature="0" sodipodi:nodetypes="cc" class="st35" d="M437.1,96.4L498,52.6"/>
		<rect id="rect3147" x="275.3" y="3.7" class="st17" width="83" height="5.5"/>
		<rect id="rect3149" x="290.8" y="13.2" class="st17" width="81.5" height="4"/>
		<rect id="rect3151" x="312.8" y="8.2" class="st17" width="87.5" height="16.4"/>
		<rect id="rect3153" x="375.3" y="-26.6" class="st25" width="57" height="5.5"/>
		<rect id="rect3155" x="375.3" y="-18.3" class="st25" width="68" height="5.5"/>
		<rect id="rect3157" x="375.3" y="-9.9" class="st25" width="57" height="5.5"/>
		
			<linearGradient id="rect3159_1_" gradientUnits="userSpaceOnUse" x1="138.5808" y1="145.3239" x2="151.677" y2="145.3239" gradientTransform="matrix(7.1679 0 0 5.3525 -526.9434 -833.8936)">
			<stop  offset="0" style="stop-color:#000000"/>
			<stop  offset="1" style="stop-color:#000000"/>
		</linearGradient>
		<rect id="rect3159" x="466.4" y="-60.2" class="st36" width="14" height="8.3"/>
		<path id="path3161" inkscape:connector-curvature="0" class="st35" d="M466.4-60.2l14,8.3"/>
		<path id="path3163" inkscape:connector-curvature="0" class="st35" d="M466.4-51.8l14-8.3"/>
		
			<linearGradient id="rect3165_1_" gradientUnits="userSpaceOnUse" x1="109.3309" y1="131.6083" x2="122.4271" y2="131.6083" gradientTransform="matrix(35.3864 0 0 35.2279 -3628.2749 -4675.9272)">
			<stop  offset="0" style="stop-color:#000000"/>
			<stop  offset="1" style="stop-color:#000000"/>
		</linearGradient>
		<rect id="rect3165" x="240.5" y="-67.1" class="st37" width="69.3" height="54.9"/>
		<path id="path3167" inkscape:connector-curvature="0" class="st35" d="M240.5-67.1l69.3,54.9"/>
		<path id="path3169" inkscape:connector-curvature="0" class="st35" d="M240.5-12.2l69.3-54.9"/>
		
			<linearGradient id="rect3171_1_" gradientUnits="userSpaceOnUse" x1="106.4596" y1="131.5814" x2="119.5558" y2="131.5814" gradientTransform="matrix(57.6749 0 0 35.6065 -5923.1953 -4617.8037)">
			<stop  offset="0" style="stop-color:#000000"/>
			<stop  offset="1" style="stop-color:#000000"/>
		</linearGradient>
		<rect id="rect3171" x="216.9" y="39.6" class="st38" width="112.9" height="55.5"/>
		<path id="path3173" inkscape:connector-curvature="0" sodipodi:nodetypes="cc" class="st35" d="M231.7,95.7L329.3,40"/>
		<rect id="rect3175" x="312.8" y="24.6" class="st32" width="88" height="6.2"/>
		<rect id="rect3177" x="312.8" y="34.1" class="st32" width="105" height="6.2"/>
		<rect id="rect3179" x="312.8" y="43.6" class="st32" width="88" height="6.2"/>
	</g>
</g>
<g id="layer11" inkscape:groupmode="layer" inkscape:label="ZUI_Epub_fixe" class="st0">
	<g id="g2831" transform="translate(15.620444,-52.530314)" class="st1">
		<rect id="rect1799-5" x="59.4" y="281" class="st39" width="232.8" height="343.1"/>
		<rect id="rect1799-7" x="365.3" y="383.5" class="st39" width="343.1" height="232.8"/>
		<rect id="rect3112-4" x="104.2" y="413" class="st21" width="77.6" height="4.9"/>
		<rect id="rect3114-8" x="104.2" y="420.4" class="st21" width="92.6" height="4.9"/>
		<rect id="rect3116-0" x="104.2" y="427.8" class="st21" width="77.6" height="4.9"/>
		<rect id="rect3096-1" x="71.8" y="446.5" class="st17" width="145" height="9.6"/>
		<rect id="rect3100-1" x="98.8" y="463.1" class="st17" width="142.4" height="7"/>
		<rect id="rect3104-5" x="137.3" y="454.4" class="st17" width="152.9" height="28.8"/>
		<rect id="rect3106-1" x="246.5" y="393.2" class="st25" width="42.3" height="9.6"/>
		<rect id="rect3108-7" x="246.5" y="407.9" class="st25" width="42.6" height="9.6"/>
		<rect id="rect3110-0" x="246.5" y="422.6" class="st25" width="42.3" height="9.6"/>
		
			<linearGradient id="rect3118-8_1_" gradientUnits="userSpaceOnUse" x1="-325.3551" y1="181.8779" x2="-312.2589" y2="181.8779" gradientTransform="matrix(1.8724 0 0 1.4045 831.1415 130.4526)">
			<stop  offset="0" style="stop-color:#000000"/>
			<stop  offset="1" style="stop-color:#000000"/>
		</linearGradient>
		<rect id="rect3118-8" x="221.9" y="378.6" class="st40" width="24.5" height="14.6"/>
		<path id="path3120-5" inkscape:connector-curvature="0" class="st41" d="M221.9,378.6l24.5,14.6"/>
		<path id="path3122-3" inkscape:connector-curvature="0" class="st41" d="M221.9,393.2l24.5-14.6"/>
		
			<linearGradient id="rect1586-7_1_" gradientUnits="userSpaceOnUse" x1="-562.7881" y1="46.6184" x2="-549.692" y2="46.6184" gradientTransform="matrix(5.4082 0 0 9.2437 3104.8962 -60.5265)">
			<stop  offset="0" style="stop-color:#000000"/>
			<stop  offset="1" style="stop-color:#000000"/>
		</linearGradient>
		<rect id="rect1586-7" x="61.2" y="322.2" class="st42" width="70.8" height="96.4"/>
		<path id="path3074-9" inkscape:connector-curvature="0" sodipodi:nodetypes="cc" class="st43" d="M58.9,360.3l73.1,58.2"/>
		<path id="path3076-6" inkscape:connector-curvature="0" sodipodi:nodetypes="cc" class="st43" d="M59.1,380.2l72.9-58"/>
		
			<linearGradient id="rect3130-3_1_" gradientUnits="userSpaceOnUse" x1="-603.4423" y1="43.0627" x2="-590.3461" y2="43.0627" gradientTransform="matrix(7.9924 0 0 10.8309 4885.1265 99.6424)">
			<stop  offset="0" style="stop-color:#000000"/>
			<stop  offset="1" style="stop-color:#000000"/>
		</linearGradient>
		<rect id="rect3130-3" x="62.2" y="509.6" class="st44" width="104.7" height="112.9"/>
		<path id="path3134-1" inkscape:connector-curvature="0" sodipodi:nodetypes="cc" class="st43" d="M59.1,571.6l107-61.3"/>
		<rect id="rect3138-5" x="137.3" y="483.2" class="st32" width="151" height="10.9"/>
		<rect id="rect3140-8" x="137.3" y="499.9" class="st32" width="151.3" height="10.9"/>
		<rect id="rect3142-0" x="137.3" y="516.5" class="st32" width="151.6" height="10.9"/>
		<rect id="rect3112-9" x="367.7" y="461.9" class="st21" width="24.8" height="4.9"/>
		<rect id="rect3114-0" x="367.7" y="469.3" class="st21" width="29.6" height="4.9"/>
		<rect id="rect3116-5" x="367.7" y="476.8" class="st21" width="24.8" height="4.9"/>
		
			<linearGradient id="rect3088-5_1_" gradientUnits="userSpaceOnUse" x1="-606.9802" y1="46.6576" x2="-593.884" y2="46.6576" gradientTransform="matrix(8.3392 0 0 9.2373 5701.335 135.4102)">
			<stop  offset="0" style="stop-color:#000000"/>
			<stop  offset="1" style="stop-color:#000000"/>
		</linearGradient>
		<rect id="rect3088-5" x="639.6" y="518" class="st45" width="67" height="96.8"/>
		<path id="path3090-4" inkscape:connector-curvature="0" sodipodi:nodetypes="cc" class="st43" d="M640,518.3l70.9,51.4"/>
		<path id="path3092-4" inkscape:connector-curvature="0" sodipodi:nodetypes="cc" class="st43" d="M677.7,616.1l31.5-22.8"/>
		<rect id="rect3096-3" x="272.3" y="495.4" class="st17" width="145" height="9.6"/>
		<rect id="rect3100-8" x="299.3" y="512" class="st17" width="142.4" height="7"/>
		<rect id="rect3104-2" x="337.8" y="503.3" class="st17" width="152.9" height="28.8"/>
		<rect id="rect3106-2" x="447" y="442.2" class="st25" width="99.6" height="9.6"/>
		<rect id="rect3108-6" x="447" y="456.8" class="st25" width="118.8" height="9.6"/>
		<rect id="rect3110-4" x="447" y="471.5" class="st25" width="99.6" height="9.6"/>
		
			<linearGradient id="rect3118-0_1_" gradientUnits="userSpaceOnUse" x1="-325.3551" y1="181.9076" x2="-312.2589" y2="181.9076" gradientTransform="matrix(1.8724 0 0 1.4045 1215.3073 144.9108)">
			<stop  offset="0" style="stop-color:#000000"/>
			<stop  offset="1" style="stop-color:#000000"/>
		</linearGradient>
		<rect id="rect3118-0" x="606.1" y="393.1" class="st46" width="24.5" height="14.6"/>
		<path id="path3120-0" inkscape:connector-curvature="0" class="st41" d="M606.1,393.1l24.5,14.6"/>
		<path id="path3122-0" inkscape:connector-curvature="0" class="st41" d="M606.1,407.7l24.5-14.6"/>
		<rect id="rect3138-1" x="368.3" y="532.1" class="st32" width="118.9" height="10.9"/>
		<rect id="rect3140-4" x="368.3" y="548.8" class="st32" width="141.8" height="10.9"/>
		<rect id="rect3142-8" x="368.3" y="565.4" class="st32" width="118.9" height="10.9"/>
	</g>
</g>
<g id="layer13" inkscape:groupmode="layer" inkscape:label="ZUI_social_media" class="st0">
	<g id="g2907" transform="matrix(3.2942567,0,0,3.2942567,379.76647,-514.25163)" class="st1">
		<rect id="rect5759-9" x="-41.9" y="235.9" class="st2" width="96.1" height="96.1"/>
		<rect id="rect5725-7" x="-41.6" y="198.3" class="st3" width="95.8" height="158.5"/>
		<rect id="rect5727-2" x="-39" y="202.1" class="st4" width="34.9" height="4.7"/>
		<rect id="rect5729-4" x="-39.4" y="211.2" class="st4" width="79.7" height="2.7"/>
		<rect id="rect5731-2" x="-39.4" y="215.3" class="st4" width="89.7" height="2.7"/>
		<rect id="rect5733-4" x="-39.4" y="219.8" class="st4" width="79.7" height="2.7"/>
		<rect id="rect5735-6" x="-39.4" y="224.3" class="st4" width="65.1" height="2.7"/>
		<g id="g5747-7" transform="matrix(1.0711657,0,0,0.72684944,-111.79964,88.304204)">
			<rect id="rect5739-5" x="79.1" y="272.9" class="st5" width="56.9" height="2.8"/>
			<rect id="rect5741-9" x="65.2" y="203.1" class="st6" width="89.7" height="132.2"/>
			<path id="path5743-2" inkscape:connector-curvature="0" class="st7" d="M65.2,203.1l89.7,132.2"/>
			<path id="path5745-6" inkscape:connector-curvature="0" class="st7" d="M154.9,203.1L65.2,335.3"/>
		</g>
		<rect id="rect5749-2" x="-39.4" y="343.3" class="st8" width="21.8" height="2.7"/>
		<rect id="rect5751-9" x="-6" y="343.3" class="st8" width="21.8" height="2.7"/>
		<rect id="rect5753-6" x="27.4" y="343.3" class="st8" width="21.8" height="2.7"/>
	</g>
</g>
<g id="layer14" inkscape:groupmode="layer" inkscape:label="ZUI_EPUB_REFlow_PDF" class="st0">
	<g id="g3018" transform="matrix(2.0208554,0,0,2.0208554,148.60811,-187.4794)" class="st1">
		<rect id="rect1996-8" x="-50.7" y="219.8" class="st47" width="95.2" height="140.3"/>
		<rect id="rect2000-0" x="204" y="221" class="st13" width="95.2" height="140.3"/>
		<rect id="rect2346-3" x="79.6" y="219.8" class="st47" width="95.2" height="140.3"/>
		<rect id="rect3398" x="-44.1" y="306.9" class="st48" width="61.1" height="46.1"/>
		<path id="path3406" inkscape:connector-curvature="0" class="st49" d="M-44.1,306.9l61,46.1"/>
		<path id="path3408" inkscape:connector-curvature="0" class="st49" d="M16.9,306.9l-61,46.1"/>
		<rect id="rect3491" x="85.9" y="250.9" class="st48" width="61.1" height="46.1"/>
		<path id="path3493" inkscape:connector-curvature="0" class="st49" d="M85.9,250.9L147,297"/>
		<path id="path3495" inkscape:connector-curvature="0" class="st49" d="M146.9,250.9l-61,46.1"/>
		<rect id="rect3497" x="209.9" y="226.9" class="st48" width="61.1" height="46.1"/>
		<path id="path3499" inkscape:connector-curvature="0" class="st49" d="M209.9,226.9L271,273"/>
		<path id="path3501" inkscape:connector-curvature="0" class="st49" d="M270.9,226.9l-61,46.1"/>
		<rect id="rect3503" x="209.9" y="306.9" class="st50" width="61.1" height="46.1"/>
		<path id="path3505" inkscape:connector-curvature="0" class="st49" d="M209.9,306.9L271,353"/>
		<path id="path3507" inkscape:connector-curvature="0" class="st49" d="M270.9,306.9l-61,46.1"/>
		<rect id="rect3410" x="85.6" y="225.8" class="st32" width="62.9" height="4.5"/>
		<rect id="rect3412" x="85.6" y="232.6" class="st32" width="75" height="4.5"/>
		<rect id="rect3414" x="85.6" y="239.4" class="st32" width="62.9" height="4.5"/>
		<rect id="rect3410-1" x="86.9" y="303.6" class="st32" width="62.9" height="4.5"/>
		<rect id="rect3412-8" x="86.9" y="310.4" class="st32" width="75" height="4.5"/>
		<rect id="rect3414-5" x="86.9" y="317.2" class="st32" width="62.9" height="4.5"/>
		<rect id="rect3485" x="210.2" y="281.8" class="st32" width="62.9" height="4.5"/>
		<rect id="rect3487" x="210.2" y="288.6" class="st32" width="75" height="4.5"/>
		<rect id="rect3489" x="210.2" y="295.4" class="st32" width="62.9" height="4.5"/>
	</g>
</g>
<g id="layer2" inkscape:groupmode="layer" inkscape:label="ZUI_EPUB_REFlow_PDF_2" class="st0">
	<g id="g1307" transform="matrix(1.7664711,0,0,1.7664711,-428.31387,-11.67905)" class="st1">
		<rect id="rect3509" x="300.9" y="79.3" class="st47" width="95.2" height="140.3"/>
		<rect id="rect3511" x="555.7" y="80.5" class="st47" width="95.2" height="140.3"/>
		<rect id="rect3513" x="431.2" y="79.3" class="st47" width="95.2" height="140.3"/>
		<rect id="rect3515" x="300.9" y="245.3" class="st47" width="95.2" height="140.3"/>
		<rect id="rect3517" x="555.7" y="246.5" class="st47" width="95.2" height="140.3"/>
		<rect id="rect3519" x="431.2" y="245.3" class="st47" width="95.2" height="140.3"/>
		<rect id="rect3521" x="339.6" y="202.3" class="st21" width="43.7" height="2.7"/>
		<rect id="rect3523" x="339.6" y="206.5" class="st21" width="52.1" height="2.7"/>
		<rect id="rect3525" x="339.6" y="210.7" class="st21" width="43.7" height="2.7"/>
		
			<linearGradient id="rect3527_1_" gradientUnits="userSpaceOnUse" x1="98.6999" y1="240.0968" x2="111.7961" y2="240.0968" gradientTransform="matrix(29.3338 0 0 21.0115 -2320.9336 -4753.3374)">
			<stop  offset="0" style="stop-color:#000000"/>
			<stop  offset="1" style="stop-color:#000000"/>
		</linearGradient>
		<rect id="rect3527" x="574.3" y="256.2" class="st51" width="75.5" height="70.5"/>
		<path id="path3529" inkscape:connector-curvature="0" sodipodi:nodetypes="ccc" class="st52" d="M574.2,256.1l48.5,35.2l26.8,18.3
			"/>
		<path id="path3531" inkscape:connector-curvature="0" sodipodi:nodetypes="cc" class="st52" d="M574.2,326.4l76.5-55.4"/>
		<rect id="rect3533" x="367.3" y="215.2" class="st17" width="81.6" height="5.4"/>
		<rect id="rect3535" x="382.6" y="224.5" class="st17" width="80.1" height="3.9"/>
		<rect id="rect3537" x="404.2" y="219.6" class="st17" width="86" height="16.2"/>
		<rect id="rect3539" x="455.6" y="185.2" class="st25" width="56" height="5.4"/>
		<rect id="rect3541" x="455.6" y="193.5" class="st25" width="66.8" height="5.4"/>
		<rect id="rect3543" x="455.6" y="201.7" class="st25" width="56" height="5.4"/>
		
			<linearGradient id="rect3545_1_" gradientUnits="userSpaceOnUse" x1="135.0678" y1="255.7982" x2="148.164" y2="255.7982" gradientTransform="matrix(7.7781 0 0 5.8343 -480.8345 -1336.1534)">
			<stop  offset="0" style="stop-color:#000000"/>
			<stop  offset="1" style="stop-color:#000000"/>
		</linearGradient>
		<rect id="rect3545" x="569.7" y="146.5" class="st53" width="32.6" height="19.5"/>
		<path id="path3547" inkscape:connector-curvature="0" class="st54" d="M569.7,146.5l32.6,19.5"/>
		<path id="path3549" inkscape:connector-curvature="0" class="st54" d="M569.7,166l32.6-19.5"/>
		<text transform="matrix(0.5661 0 0 0.5661 285.7908 92.0671)" class="st55 st56">1</text>
		<text transform="matrix(0.5661 0 0 0.5661 415.6755 91.2976)" class="st55 st56">2</text>
		<text transform="matrix(0.5661 0 0 0.5661 542.7895 93.0666)" class="st55 st56">3</text>
		<text transform="matrix(0.5661 0 0 0.5661 285.2888 257.0655)" class="st55 st56">4</text>
		<text transform="matrix(0.5661 0 0 0.5661 418.349 259.164)" class="st55 st56">5</text>
		<text transform="matrix(0.5661 0 0 0.5661 543.1078 260.4135)" class="st55 st56">6</text>
		<path id="rect3913" inkscape:connector-curvature="0" sodipodi:nodetypes="cccccccc" class="st57" d="M403.3,149.5h8.3v-3.2
			l8.3,6.1l-8.3,5.7v-3h-8.3V149.5z"/>
		<path id="path3920" inkscape:connector-curvature="0" sodipodi:nodetypes="cccccccc" class="st57" d="M364.1,224.3v8.3h3.2
			l-6.1,8.3l-5.7-8.3h3v-8.3H364.1z"/>
		<path id="path3922" inkscape:connector-curvature="0" sodipodi:nodetypes="cccccccc" class="st57" d="M531.3,149.5h8.3v-3.2
			l8.3,6.1l-8.3,5.7v-3h-8.3V149.5z"/>
		<path id="path3924" inkscape:connector-curvature="0" sodipodi:nodetypes="cccccccc" class="st57" d="M478.1,224.3v8.3h3.2
			l-6.1,8.3l-5.7-8.3h3v-8.3H478.1z"/>
		<path id="path3926" inkscape:connector-curvature="0" sodipodi:nodetypes="cccccccc" class="st57" d="M610.1,224.3v8.3h3.2
			l-6.1,8.3l-5.7-8.3h3v-8.3H610.1z"/>
		<path id="path3928" inkscape:connector-curvature="0" sodipodi:nodetypes="cccccccc" class="st57" d="M419.9,320.9h-8.3v3.2
			l-8.3-6.1l8.3-5.7v3h8.3V320.9z"/>
		<path id="path3930" inkscape:connector-curvature="0" sodipodi:nodetypes="cccccccc" class="st57" d="M547.9,320.9h-8.3v3.2
			l-8.3-6.1l8.3-5.7v3h8.3V320.9z"/>
		
			<linearGradient id="rect3551_1_" gradientUnits="userSpaceOnUse" x1="109.297" y1="241.8653" x2="122.3933" y2="241.8653" gradientTransform="matrix(16.2287 0 0 16.2287 -1466.6182 -3752.8708)">
			<stop  offset="0" style="stop-color:#000000"/>
			<stop  offset="1" style="stop-color:#000000"/>
		</linearGradient>
		<rect id="rect3551" x="307.1" y="145.2" class="st58" width="68.1" height="54.2"/>
		<path id="path3553" inkscape:connector-curvature="0" class="st52" d="M307.1,145.2l68.1,54.2"/>
		<path id="path3555" inkscape:connector-curvature="0" class="st52" d="M307.1,199.4l68.1-54.2"/>
		
			<linearGradient id="rect3557_1_" gradientUnits="userSpaceOnUse" x1="104.3969" y1="240.6066" x2="117.4931" y2="240.6066" gradientTransform="matrix(20.4541 0 0 19.3558 -1825.5529 -4368.1724)">
			<stop  offset="0" style="stop-color:#000000"/>
			<stop  offset="1" style="stop-color:#000000"/>
		</linearGradient>
		<rect id="rect3557" x="309.8" y="256.6" class="st59" width="85.8" height="64.7"/>
		<path id="path3559" inkscape:connector-curvature="0" sodipodi:nodetypes="cc" class="st52" d="M309.9,321.2l86.4-50.1"/>
		<rect id="rect3561" x="435.9" y="251.3" class="st32" width="86.5" height="6.1"/>
		<rect id="rect3563" x="435.9" y="260.7" class="st32" width="79" height="6.1"/>
		<rect id="rect3565" x="435.9" y="270" class="st32" width="86.5" height="6.1"/>
		<rect id="rect3575" x="435.9" y="278.7" class="st32" width="79" height="6.1"/>
		<path id="path3577" inkscape:connector-curvature="0" sodipodi:nodetypes="cc" class="st60" d="M309.8,256.6l85.9,52.5"/>
	</g>
</g>
<g>
	<g>
		<g>
			<rect x="50.5" y="37.4" class="st5" width="512.7" height="732.6"/>
			<path d="M560.3,40.3v726.9H53.4V40.3L560.3,40.3 M566,34.6H47.7v738.3H566V34.6L566,34.6z"/>
		</g>
		<g>
			<rect x="43.2" y="35.9" class="st5" width="516.5" height="731.6"/>
			<path d="M558.5,37v729H44.4V37H558.5 M560.9,34.6H42v734h518.9V34.6L560.9,34.6z"/>
		</g>
	</g>
	<line class="st61" x1="86.7" y1="100.3" x2="297.1" y2="100.3"/>
	<g>
		<line class="st62" x1="81.4" y1="138.6" x2="382.1" y2="138.6"/>
		<line class="st62" x1="81.4" y1="159.7" x2="382.1" y2="159.7"/>
		<line class="st62" x1="81.4" y1="180.8" x2="382.1" y2="180.8"/>
		<line class="st62" x1="81.4" y1="201.5" x2="382.1" y2="201.5"/>
		<line class="st62" x1="81.4" y1="222.7" x2="382.1" y2="222.7"/>
		<line class="st62" x1="81.4" y1="243.8" x2="325.3" y2="243.8"/>
	</g>
	<g>
		<g id="g58_1_">
			<g>
				<circle id="circle55_1_" class="st63" cx="527.8" cy="741.5" r="8.7"/>
			</g>
		</g>
		<line class="st64" x1="504.6" y1="741.5" x2="327.6" y2="741.5"/>
	</g>
	<g id="g1193_5_" transform="rotate(90,657.2562,345.03368)">
		
			<rect id="rect1189_5_" x="697.9" y="589.1" transform="matrix(2.535182e-06 1 -1 2.535182e-06 1615.8171 -199.2977)" class="st65" width="419.2" height="238.3"/>
		<path id="path1191_5_" inkscape:connector-curvature="0" class="st66" d="M1026,499.5v417.3H789.7V499.5H1026 M1027.7,497.7H787.6
			v421.1h240.1V497.7z"/>
	</g>
	<rect id="rect3112-9_2_" x="84.6" y="572.4" class="st21" width="30.8" height="6"/>
	<rect id="rect3114-0_2_" x="84.6" y="581.6" class="st21" width="36.7" height="6"/>
	<rect id="rect3116-5_2_" x="84.6" y="590.9" class="st21" width="30.8" height="6"/>
	
		<linearGradient id="rect3088-5_3_" gradientUnits="userSpaceOnUse" x1="-530.554" y1="279.7767" x2="-498.7509" y2="279.7767" gradientTransform="matrix(4.1579 0 0 -2.6352 2628.3186 1415.3562)">
		<stop  offset="0" style="stop-color:#000000"/>
		<stop  offset="1" style="stop-color:#000000"/>
	</linearGradient>
	<rect id="rect3088-5_2_" x="421.1" y="641.6" class="st67" width="83.4" height="72.9"/>
	<path id="path3090-4_2_" inkscape:connector-curvature="0" sodipodi:nodetypes="cc" class="st68" d="M421.9,642.4l82.7,60.1"/>
	<rect id="rect3106-2_2_" x="182.8" y="547.9" class="st25" width="123.2" height="12"/>
	<rect id="rect3108-6_2_" x="182.8" y="566.2" class="st25" width="147.1" height="12"/>
	<rect id="rect3110-4_2_" x="182.8" y="584.1" class="st25" width="123.2" height="12"/>
	
		<linearGradient id="rect3118-0_3_" gradientUnits="userSpaceOnUse" x1="-464.9767" y1="-394.9272" x2="-433.1604" y2="-394.9272" gradientTransform="matrix(0.9279 0 0 -0.696 811.7888 221.4304)">
		<stop  offset="0" style="stop-color:#000000"/>
		<stop  offset="1" style="stop-color:#000000"/>
	</linearGradient>
	<rect id="rect3118-0_2_" x="379.9" y="487.2" class="st69" width="30.5" height="18.3"/>
	<path id="path3120-0_2_" inkscape:connector-curvature="0" class="st70" d="M379.9,487.2l30.5,18.3"/>
	<path id="path3122-0_2_" inkscape:connector-curvature="0" class="st70" d="M379.9,505.2l30.5-18.3"/>
	<rect id="rect3138-1_2_" x="85.3" y="659.4" class="st32" width="147.1" height="13.5"/>
	<rect id="rect3140-4_2_" x="85.3" y="679.9" class="st32" width="175.7" height="13.5"/>
	<rect id="rect3142-8_2_" x="85.3" y="700.6" class="st32" width="147.1" height="13.5"/>
	<g id="g1193_4_" transform="rotate(90,657.2562,345.03368)">
		
			<rect id="rect1189_4_" x="529.2" y="688.6" transform="matrix(2.535182e-06 1 -1 2.535182e-06 1446.4709 96.4889)" class="st5" width="291.6" height="165.8"/>
		<path id="path1191_4_" inkscape:connector-curvature="0" d="M757.4,626.1v290.2H593V626.1H757.4 M758.5,625H591.6v292.7h166.9V625
			z"/>
	</g>
	<g id="g1193_3_" transform="rotate(90,657.2562,345.03368)">
		
			<rect id="rect1189_3_" x="612.5" y="708.4" transform="matrix(2.535182e-06 1 -1 2.535182e-06 1424.7214 67.2367)" class="st71" width="132.4" height="75.3"/>
		<path id="path1191_3_" inkscape:connector-curvature="0" class="st72" d="M716.1,680v131.8h-74.7V680H716.1 M716.7,679.5h-75.8
			v132.9h75.8V679.5z"/>
	</g>
	<rect id="rect3096-3_1_" x="275.4" y="743.2" class="st17" width="207.1" height="13.7"/>
</g>
</svg>
